total profit,total trades,win rate,profit factor,maximum drawdown,recovery factor,riskreward ratio,sharpe ratio,average return,stop loss hit,take profit hit,stop loss set,take profit set,ema_period,rsi_period,atr_period,rsi_low,rsi_high
6393.0,60,65.0,1.574,2240.0,2.854,0.928,0.19,68.862,22,0,5,0,7,1,10,35,98
6011.002,19,78.947,10.952,238.0,25.256,2.921,0.718,218.189,0,0,0,0,7,10,10,35,98
5971.999,28,53.571,2.572,1128.001,5.294,3.257,0.374,129.633,19,0,2,0,8,11,10,35,98
5838.001,23,78.261,5.094,603.999,9.666,1.415,0.676,175.567,0,0,0,0,6,6,10,35,98
5750.999,35,42.857,1.992,946.001,6.079,3.85,0.278,99.479,29,0,2,0,11,11,10,35,98
5523.0,26,73.077,4.812,552.999,9.987,1.773,0.621,152.987,0,0,0,0,7,6,10,35,98
5474.999,82,36.585,1.415,1937.003,2.827,3.112,0.14,40.314,66,0,2,0,8,1,10,35,98
5446.003,22,81.818,10.017,238.0,22.882,2.226,0.81,174.404,0,0,0,0,7,8,10,35,98
5401.999,29,44.828,2.08,1000.0,5.402,4.001,0.29,107.142,25,0,2,0,11,14,10,35,98
5382.999,35,42.857,1.928,946.001,5.69,3.728,0.268,93.409,29,0,2,0,10,11,10,35,98
5354.0,26,46.154,2.339,800.0,6.693,3.898,0.335,123.582,20,0,2,0,11,15,10,35,98
5352.0,34,70.588,2.441,1115.002,4.8,1.017,0.374,110.335,0,0,0,0,7,4,10,35,98
5346.999,33,48.485,2.162,1528.001,3.499,3.108,0.309,102.686,23,0,2,0,8,8,10,35,98
5310.0,31,45.161,2.106,1200.0,4.425,3.611,0.296,105.003,24,0,2,0,9,11,10,35,98
5304.002,19,84.211,14.67,217.0,24.442,2.751,0.946,191.592,0,0,0,0,5,7,10,35,98
5297.002,18,83.333,13.951,238.0,22.256,2.79,0.89,199.665,0,0,0,0,6,8,10,35,98
5272.002,21,80.952,6.998,426.0,12.376,1.647,0.739,171.668,0,0,0,0,6,7,10,35,98
5257.001,26,73.077,3.651,780.001,6.74,1.345,0.557,143.497,0,0,0,0,5,4,10,35,98
5203.0,30,73.333,2.69,918.0,5.668,0.978,0.416,120.912,0,0,0,0,6,4,10,35,98
5124.999,27,51.852,2.349,1128.001,4.543,3.187,0.339,117.854,19,0,2,0,8,12,10,35,98
5099.0,67,55.224,1.402,2627.001,1.941,1.251,0.15,50.644,31,0,4,0,7,1,10,35,98
5097.002,42,71.429,1.883,2381.0,2.141,0.753,0.236,80.993,0,0,0,0,7,1,10,35,98
5074.001,13,92.308,71.472,72.0,70.472,5.956,1.231,270.622,0,0,0,0,6,14,10,35,98
5039.001,57,40.351,1.4,1953.999,2.579,2.556,0.156,59.213,42,0,3,0,12,4,10,35,98
5033.998,29,44.828,2.007,1000.0,5.034,3.859,0.28,100.114,25,0,2,0,10,14,10,35,98
4985.999,26,46.154,2.246,800.0,6.232,3.744,0.324,115.236,20,0,2,0,10,15,10,35,98
4976.998,26,57.692,2.59,1000.0,4.977,2.762,0.374,118.862,15,0,2,0,7,11,10,35,98
4920.999,14,92.857,20.374,254.001,19.374,1.567,1.17,240.811,0,0,0,0,5,11,10,35,98
4902.998,40,40.0,1.766,1000.0,4.903,3.532,0.234,78.609,32,0,2,0,10,8,10,35,98
4901.001,15,86.667,29.661,156.0,31.417,4.563,1.122,225.071,0,0,0,0,5,8,10,35,98
4895.999,40,37.5,1.742,1346.001,3.637,3.832,0.228,79.324,33,0,2,0,11,8,10,35,98
4876.998,27,55.556,2.016,1628.001,2.996,2.15,0.303,116.254,16,0,3,0,8,11,10,35,98
4864.999,22,54.545,2.622,1128.001,4.313,3.277,0.378,134.477,15,0,2,0,8,14,10,35,98
4846.002,23,73.913,6.256,468.999,10.333,2.208,0.664,148.923,0,0,0,0,7,7,10,35,98
4821.999,34,41.176,1.804,946.001,5.097,3.865,0.243,86.858,30,0,2,0,11,12,10,35,98
4810.0,26,73.077,2.325,1000.0,4.81,0.979,0.363,129.992,7,0,5,0,7,8,10,35,98
4779.0,19,78.947,6.929,284.0,16.827,1.848,0.728,176.626,0,0,0,0,7,11,10,35,98
4777.999,31,54.839,2.281,1000.0,4.778,2.549,0.329,99.349,18,0,2,0,7,8,10,35,98
4775.0,24,54.167,1.918,1200.0,3.979,1.918,0.306,137.952,13,0,4,0,11,15,10,35,98
4758.001,11,90.909,20.992,238.0,19.992,2.099,1.111,293.615,0,0,0,0,6,15,10,35,98
4758.0,35,40.0,1.767,1200.0,3.965,3.914,0.232,82.315,31,0,2,0,12,11,10,35,98
4756.001,15,86.667,16.342,238.0,19.983,2.514,0.91,216.786,0,0,0,0,6,12,10,35,98
4743.999,32,46.875,1.688,974.001,4.871,2.588,0.237,96.299,23,0,3,0,11,11,10,35,98
4739.001,13,92.308,31.378,156.0,30.378,2.615,1.198,244.8,0,0,0,0,5,9,10,35,98
4734.0,15,86.667,10.622,254.001,18.638,1.634,0.87,212.992,0,0,0,0,6,11,10,35,98
4729.002,15,86.667,32.318,78.999,59.861,4.972,1.047,230.483,0,0,0,0,7,14,10,35,98
4724.001,14,85.714,40.367,78.999,59.798,6.728,1.1,247.346,0,0,0,0,8,14,10,35,98
4713.0,13,92.308,31.212,156.0,30.212,2.601,1.185,243.276,0,0,0,0,5,10,10,35,98
4684.0,49,34.694,1.545,2514.001,1.863,3.907,0.184,61.834,43,0,2,0,11,5,10,35,98
4653.999,33,42.424,1.802,946.001,4.92,3.734,0.246,85.792,29,0,2,0,10,12,10,35,98
4645.0,33,45.455,1.645,974.001,4.769,2.632,0.223,90.818,24,0,3,0,12,11,10,35,98
4634.002,19,78.947,8.426,284.0,16.317,2.247,0.742,174.699,0,0,0,0,7,12,10,35,98
4630.0,36,41.667,1.827,1400.0,3.307,3.41,0.242,82.033,28,0,2,0,9,8,10,35,98
4628.001,28,50.0,2.157,1328.001,3.485,3.081,0.292,98.194,20,0,2,0,8,10,10,35,98
4612.0,21,76.19,2.753,834.001,5.53,1.032,0.402,149.291,5,0,5,0,7,10,10,35,98
4585.002,20,75.0,4.792,603.999,7.591,1.597,0.656,158.78,0,0,0,0,5,6,10,35,98
4581.0,29,44.828,1.954,1000.0,4.581,3.608,0.271,96.463,24,0,2,0,9,12,10,35,98
4571.001,30,53.333,1.746,1200.0,3.809,1.746,0.261,108.993,15,0,4,0,9,8,10,35,98
4566.002,15,86.667,12.589,238.0,19.185,1.937,0.849,202.654,0,0,0,0,6,10,10,35,98
4556.002,52,46.154,1.356,2593.002,1.757,1.808,0.154,64.151,32,0,4,0,12,4,10,35,98
4490.999,50,36.0,1.522,2339.001,1.92,3.636,0.178,58.08,43,0,2,0,10,5,10,35,98
4485.001,12,91.667,63.292,72.0,62.292,5.754,1.27,258.772,0,0,0,0,5,12,10,35,98
4476.001,19,73.684,4.768,618.001,7.243,1.703,0.635,175.545,0,0,0,0,9,8,10,35,98
4465.998,42,66.667,1.585,1776.0,2.515,0.906,0.204,72.756,15,0,5,0,7,4,10,35,98
4443.0,25,56.0,2.419,1000.0,4.443,2.765,0.34,108.418,15,0,2,0,7,10,10,35,98
4406.0,24,54.167,1.847,1200.0,3.672,1.847,0.287,127.323,13,0,4,0,12,15,10,35,98
4391.0,28,60.714,1.844,1200.0,3.659,1.41,0.281,110.38,13,0,4,0,8,8,10,35,98
4385.001,17,76.471,5.137,618.001,7.095,1.581,0.563,179.589,0,0,0,0,8,10,10,35,98
4377.999,22,72.727,2.398,1000.0,4.378,1.049,0.369,139.187,6,0,5,0,7,11,10,35,98
4372.001,16,75.0,5.125,618.001,7.074,1.708,0.569,191.853,0,0,0,0,9,10,10,35,98
4357.998,25,56.0,2.392,928.001,4.696,2.734,0.345,110.753,15,0,2,0,7,12,10,35,98
4347.0,26,46.154,1.852,1046.001,4.156,2.624,0.273,112.372,17,0,3,0,11,15,10,35,98
4332.0,34,38.235,1.722,1600.0,2.707,3.974,0.215,75.72,30,0,2,0,11,10,10,35,98
4329.998,76,39.474,1.376,1706.0,2.538,2.659,0.132,35.578,57,0,2,0,7,1,10,35,98
4322.002,15,80.0,8.452,238.0,18.16,2.113,0.773,195.367,0,0,0,0,6,9,10,35,98
4300.999,20,65.0,2.195,1128.001,3.813,1.519,0.363,148.365,9,0,4,0,8,14,10,35,98
4292.999,32,46.875,1.622,1057.001,4.061,2.487,0.223,87.818,23,0,3,0,10,11,10,35,98
4292.0,30,46.667,1.736,1500.0,2.861,2.481,0.242,95.462,19,0,3,0,9,11,10,35,98
4288.998,24,54.167,1.825,1200.0,3.574,1.825,0.286,124.396,13,0,4,0,10,15,10,35,98
4280.998,23,69.565,3.398,935.001,4.579,1.487,0.538,140.41,0,0,0,0,8,6,10,35,98
4268.0,27,66.667,2.033,1600.0,2.668,1.242,0.32,111.46,10,0,4,0,7,8,10,35,98
4267.999,19,68.421,2.219,1528.001,2.793,1.195,0.371,161.154,7,0,5,0,8,14,10,35,98
4238.003,38,71.053,1.855,1756.001,2.413,0.756,0.253,77.105,0,0,0,0,7,3,10,35,98
4234.998,60,33.333,1.392,2346.001,1.805,3.759,0.145,46.279,54,0,2,0,11,4,10,35,98
4233.998,17,76.471,4.355,618.001,6.851,1.34,0.666,182.325,0,0,0,0,8,11,10,35,98
4225.999,36,44.444,1.563,1200.0,3.522,2.443,0.207,81.135,25,0,3,0,10,8,10,35,98
4210.999,22,59.091,1.842,1241.0,3.393,1.417,0.3,140.382,10,0,5,0,11,15,10,35,98
4209.0,30,40.0,1.752,1400.0,3.006,4.087,0.225,81.656,28,0,2,0,12,14,10,35,98
4204.001,19,78.947,4.966,618.001,6.803,1.324,0.683,162.434,0,0,0,0,8,8,10,35,98
4202.0,36,41.667,1.539,1500.0,2.801,2.667,0.202,81.805,26,0,3,0,11,8,10,35,98
4184.999,29,44.828,1.664,1500.0,2.79,2.688,0.23,94.935,21,0,3,0,11,14,10,35,98
4184.0,34,41.176,1.721,1379.999,3.032,3.566,0.214,72.715,29,0,2,0,10,10,10,35,98
4171.999,34,29.412,2.018,1700.0,2.454,8.272,0.216,62.171,41,0,1,0,11,14,10,35,98
4169.998,39,41.026,1.652,1528.001,2.729,3.303,0.207,66.515,32,0,2,0,8,6,10,35,98
4161.001,27,40.741,1.905,1000.0,4.161,3.982,0.256,92.631,23,0,2,0,12,15,10,35,98
4147.998,17,70.588,3.984,618.001,6.712,1.66,0.618,180.885,0,0,0,0,9,11,10,35,98
4137.998,26,53.846,1.862,1628.001,2.542,2.128,0.273,105.561,16,0,3,0,8,12,10,35,98
4131.001,57,38.596,1.32,2352.001,1.756,2.58,0.126,47.858,43,0,3,0,13,4,10,35,98
4129.0,32,50.0,1.573,1600.0,2.581,1.77,0.226,96.462,18,0,4,0,10,8,10,35,98
4124.001,21,71.429,3.111,949.0,4.346,1.244,0.49,137.021,0,0,0,0,5,5,10,35,98
4124.0,42,40.476,1.625,1866.0,2.21,3.154,0.203,63.996,33,0,2,0,8,5,10,35,98
4123.002,32,46.875,1.543,2000.0,2.062,1.954,0.219,97.674,19,0,4,0,12,8,10,35,98
4112.998,27,59.259,1.734,1528.001,2.692,1.518,0.251,101.861,14,0,4,0,8,11,10,35,98
4111.002,30,43.333,1.856,1200.0,3.426,3.427,0.236,81.267,24,0,2,0,9,10,10,35,98
4103.001,36,41.667,1.507,1500.0,2.735,2.712,0.19,77.06,27,0,3,0,12,8,10,35,98
4102.997,16,68.75,4.468,618.001,6.639,2.031,0.635,196.762,0,0,0,0,11,11,10,35,98
4097.999,71,46.479,1.297,2476.0,1.655,1.848,0.108,34.137,45,0,3,0,7,1,10,35,98
4091.0,20,60.0,2.573,800.0,5.114,2.788,0.375,126.013,13,0,2,0,7,14,10,35,98
4080.0,17,76.471,2.632,1000.0,4.08,1.012,0.432,173.773,5,0,5,0,7,14,10,35,98
4078.0,18,72.222,2.456,1200.0,3.398,1.323,0.407,157.257,7,0,4,0,7,14,10,35,98
4076.998,25,60.0,2.011,1328.001,3.07,1.877,0.3,104.892,13,0,3,0,7,11,10,35,98
4073.0,22,68.182,2.735,1572.001,2.591,1.277,0.421,126.74,0,0,0,0,6,5,10,35,98
4058.0,26,46.154,1.751,1046.001,3.88,2.627,0.245,100.296,18,0,3,0,12,15,10,35,98
4057.001,19,52.632,2.69,1000.0,4.057,3.229,0.369,128.977,12,0,2,0,8,15,10,35,98
4047.002,19,73.684,6.567,284.0,14.25,2.345,0.636,150.346,0,0,0,0,7,9,10,35,98
4045.0,23,65.217,2.214,1202.999,3.362,1.329,0.329,121.645,8,0,4,0,7,10,10,35,98
4041.998,61,34.426,1.374,2171.001,1.862,3.534,0.14,43.434,54,0,2,0,10,4,10,35,98
4027.999,61,32.787,1.366,2346.001,1.717,3.757,0.14,45.139,55,0,2,0,12,4,10,35,98
4021.0,58,37.931,1.305,2352.001,1.71,2.609,0.121,46.003,44,0,3,0,14,4,10,35,98
4019.002,38,71.053,1.664,2597.002,1.548,0.678,0.184,66.723,0,0,0,0,6,1,10,35,98
4009.999,36,41.667,1.691,1528.001,2.624,3.27,0.214,69.385,29,0,2,0,8,7,10,35,98
4003.998,33,30.303,2.027,1600.0,2.502,7.904,0.221,61.809,39,0,1,0,10,14,10,35,98
3973.001,37,72.973,1.73,2496.001,1.592,0.641,0.207,70.768,0,0,0,0,6,2,10,35,98
3972.999,23,69.565,2.094,1028.001,3.865,1.047,0.325,125.114,7,0,5,0,7,12,10,35,98
3966.0,25,60.0,1.901,1200.0,3.305,1.394,0.269,107.375,11,0,4,0,8,10,10,35,98
3964.999,21,57.143,2.017,1628.001,2.436,2.185,0.305,119.637,13,0,3,0,8,14,10,35,98
3950.0,36,36.111,1.617,1400.0,2.821,3.981,0.195,68.322,32,0,2,0,13,11,10,35,98
3948.0,25,44.0,1.94,1000.0,3.948,3.704,0.265,95.21,21,0,2,0,9,14,10,35,98
3939.999,37,35.135,1.597,1400.0,2.814,4.054,0.189,66.765,33,0,2,0,14,11,10,35,98
3925.0,34,44.118,1.583,1500.0,2.617,2.428,0.206,80.165,22,0,3,0,9,8,10,35,98
3922.001,32,46.875,1.516,2000.0,1.961,1.92,0.212,93.821,19,0,4,0,11,8,10,35,98
3903.0,40,35.0,1.558,1400.0,2.788,3.894,0.186,63.973,35,0,2,0,12,8,10,35,98
3901.0,51,33.333,1.433,2546.001,1.532,3.794,0.158,52.12,45,0,2,0,12,5,10,35,98
3898.001,9,88.889,55.139,72.0,54.139,6.892,1.369,296.183,0,0,0,0,5,14,10,35,98
3895.999,26,46.154,1.764,1046.001,3.725,2.499,0.255,101.259,17,0,3,0,10,15,10,35,98
3895.999,29,44.828,1.59,1500.0,2.597,2.691,0.207,85.083,22,0,3,0,12,14,10,35,98
3889.999,23,65.217,1.864,1334.001,2.916,1.119,0.27,111.899,9,0,5,0,8,11,10,35,98
3856.001,8,100.0,-inf,0.0,inf,nan,1.48,322.117,0,0,0,0,5,15,10,35,98
3851.998,32,50.0,1.642,2228.001,1.729,2.052,0.222,81.817,20,0,3,0,8,8,10,35,98
3848.997,31,54.839,1.513,1000.0,3.849,1.335,0.213,94.792,15,0,5,0,10,8,10,35,98
3846.998,16,68.75,4.918,417.0,9.225,2.235,0.619,183.321,0,0,0,0,12,11,10,35,98
3838.0,33,72.727,1.846,1600.002,2.399,0.692,0.253,79.509,0,0,0,0,6,3,10,35,98
3814.0,21,71.429,4.032,628.001,6.073,1.613,0.574,135.573,0,0,0,0,8,7,10,35,98
3798.0,23,52.174,1.73,1663.0,2.284,1.875,0.252,112.77,13,0,4,0,13,15,10,35,98
3789.0,29,31.034,2.083,1600.0,2.368,8.099,0.226,64.739,35,0,1,0,11,15,10,35,98
3778.0,24,50.0,1.675,1663.0,2.272,1.954,0.239,108.412,14,0,4,0,14,15,10,35,98
3770.998,25,64.0,1.913,1229.999,3.066,1.315,0.286,105.481,10,0,4,0,7,12,10,35,98
3767.999,16,68.75,4.841,618.001,6.097,2.2,0.515,172.193,0,0,0,0,10,10,10,35,98
3764.999,27,70.37,1.813,1000.0,3.765,0.954,0.258,94.7,9,0,5,0,7,7,10,35,98
3755.999,56,39.286,1.298,2003.001,1.875,2.478,0.125,46.347,42,0,3,0,11,4,10,35,98
3734.0,18,72.222,3.994,633.0,5.899,1.536,0.576,163.086,0,0,0,0,10,8,10,35,98
3733.998,29,44.828,1.593,1500.0,2.489,2.573,0.214,85.456,21,0,3,0,10,14,10,35,98
3724.998,22,59.091,1.745,1241.0,3.002,1.342,0.277,125.058,10,0,5,0,10,15,10,35,98
3705.0,32,43.75,1.515,1207.001,3.07,2.596,0.196,79.495,24,0,3,0,11,12,10,35,98
3701.998,52,38.462,1.43,1728.001,2.142,3.075,0.153,45.78,43,0,2,0,8,4,10,35,98
3693.999,22,50.0,2.086,1128.001,3.275,3.225,0.292,101.529,17,0,2,0,8,13,10,35,98
3689.999,28,67.857,2.285,868.001,4.251,1.082,0.358,96.691,0,0,0,0,5,3,10,35,98
3688.0,29,44.828,1.802,1528.001,2.414,3.188,0.228,75.32,23,0,2,0,8,9,10,35,98
3686.001,23,69.565,2.015,1000.0,3.686,1.008,0.299,112.814,7,0,5,0,7,9,10,35,98
3682.999,69,49.275,1.246,3239.002,1.137,1.393,0.101,36.643,37,0,4,0,8,1,10,35,98
3662.0,32,46.875,1.458,1455.0,2.517,1.944,0.186,83.008,20,0,4,0,12,11,10,35,98
3657.0,24,58.333,1.98,1328.001,2.754,1.839,0.282,99.285,12,0,3,0,7,10,10,35,98
3640.999,33,48.485,1.77,1025.0,3.552,2.654,0.235,69.697,23,0,2,0,7,7,10,35,98
3635.998,32,65.625,1.593,1548.0,2.349,0.986,0.217,80.988,12,0,5,0,7,6,10,35,98
3629.0,35,37.143,1.55,1600.0,2.268,3.934,0.186,65.162,33,0,2,0,12,12,10,35,98
3623.001,13,69.231,7.636,287.0,12.624,3.394,0.709,208.953,0,0,0,0,11,15,10,35,98
3620.999,28,32.143,2.097,1500.0,2.414,7.69,0.231,64.439,33,0,1,0,10,15,10,35,98
3616.995,16,68.75,4.057,618.001,5.853,1.844,0.607,175.099,0,0,0,0,10,11,10,35,98
3607.999,34,64.706,1.588,2080.001,1.735,0.939,0.215,78.64,12,0,5,0,7,5,10,35,98
3606.001,33,42.424,1.481,1200.0,3.005,2.644,0.183,74.444,25,0,3,0,12,12,10,35,98
3600.999,30,36.667,1.643,1400.0,2.572,4.182,0.197,71.127,28,0,2,0,13,14,10,35,98
3600.998,37,45.946,1.651,1425.0,2.527,2.719,0.209,61.434,27,0,2,0,7,6,10,35,98
3590.999,31,35.484,1.619,1400.0,2.565,4.269,0.191,69.256,29,0,2,0,14,14,10,35,98
3581.998,25,64.0,1.791,1229.999,2.912,1.343,0.257,94.985,11,0,4,0,7,11,10,35,98
3577.999,30,56.667,1.726,1402.0,2.552,1.726,0.243,80.799,16,0,3,0,7,8,10,35,98
3562.998,57,40.351,1.283,1828.001,1.949,2.342,0.119,42.997,42,0,3,0,10,4,10,35,98
3553.999,31,45.161,1.515,907.001,3.918,2.489,0.198,78.38,23,0,3,0,10,12,10,35,98
3553.001,26,38.462,1.772,1000.0,3.553,4.077,0.223,80.521,23,0,2,0,13,15,10,35,98
3553.0,29,44.828,1.61,1200.0,2.961,2.476,0.214,85.111,19,0,3,0,9,12,10,35,98
3548.002,52,44.231,1.269,3152.001,1.126,1.82,0.119,49.514,33,0,4,0,13,4,10,35,98
3547.0,27,51.852,1.739,1928.001,1.84,1.987,0.226,84.583,16,0,3,0,8,10,10,35,98
3543.0,27,37.037,1.738,1000.0,3.543,4.172,0.215,78.043,24,0,2,0,14,15,10,35,98
3534.999,30,50.0,1.51,1285.0,2.751,1.812,0.194,82.407,17,0,4,0,9,11,10,35,98
3523.0,27,51.852,1.944,1000.0,3.523,2.639,0.259,79.94,18,0,2,0,7,9,10,35,98
3512.999,27,48.148,1.517,1200.0,2.927,1.983,0.209,94.509,17,0,4,0,12,14,10,35,98
3507.999,31,51.613,1.438,1315.001,2.668,1.438,0.194,89.432,16,0,5,0,11,8,10,35,98
3501.999,27,48.148,1.515,1200.0,2.918,1.981,0.209,94.555,17,0,4,0,11,14,10,35,98
3500.998,28,53.571,1.5,1241.0,2.821,1.4,0.211,97.35,14,0,5,0,11,11,10,35,98
3499.999,46,58.696,1.41,2022.001,1.731,1.149,0.166,55.206,21,0,4,0,7,4,10,35,98
3484.999,40,32.5,1.498,1673.0,2.083,4.033,0.167,57.664,35,0,2,0,14,8,10,35,98
3477.0,12,83.333,8.067,254.001,13.689,1.613,0.763,200.16,0,0,0,0,6,13,10,35,98
3475.0,17,64.706,2.086,801.0,4.338,1.517,0.305,124.946,8,0,4,0,8,15,10,35,98
3474.0,35,34.286,1.543,1600.0,2.171,4.114,0.175,60.964,32,0,2,0,11,9,10,35,98
3472.999,28,39.286,1.643,946.001,3.671,4.033,0.206,73.836,27,0,2,0,11,13,10,35,98
3461.001,27,51.852,1.618,1318.998,2.624,1.618,0.208,89.158,14,0,4,0,9,10,10,35,98
3460.999,32,46.875,1.433,1455.0,2.379,1.91,0.178,79.265,20,0,4,0,11,11,10,35,98
3457.999,23,60.87,2.733,935.001,3.698,1.757,0.42,114.813,0,0,0,0,9,6,10,35,98
3457.998,24,58.333,1.858,1328.001,2.604,1.858,0.27,95.43,13,0,3,0,7,12,10,35,98
3456.999,29,55.172,1.522,1000.0,3.457,1.331,0.192,81.682,13,0,5,0,9,8,10,35,98
3450.0,26,42.308,1.639,1463.0,2.358,2.682,0.212,86.8,18,0,3,0,13,15,10,35,98
3443.999,35,37.143,1.555,1262.0,2.729,3.709,0.178,59.673,31,0,2,0,10,9,10,35,98
3441.0,51,45.098,1.272,2803.001,1.228,1.77,0.127,51.773,31,0,4,0,11,4,10,35,98
3437.0,31,67.742,1.835,2245.0,1.531,0.874,0.233,77.633,0,0,0,0,5,2,10,35,98
3437.0,34,41.176,1.441,1500.0,2.291,2.675,0.166,66.557,26,0,3,0,13,11,10,35,98
3420.001,12,83.333,11.789,238.0,14.37,2.358,0.888,188.605,0,0,0,0,8,15,10,35,98
3418.998,34,55.882,1.475,1658.001,2.062,1.397,0.191,73.619,18,0,4,0,8,6,10,35,98
3413.999,27,62.963,1.621,1808.0,1.888,1.049,0.21,84.145,11,0,5,0,8,8,10,35,98
3412.003,12,83.333,11.763,238.0,14.336,2.353,0.96,188.31,0,0,0,0,7,15,10,35,98
3404.0,32,50.0,1.4,1315.001,2.589,1.488,0.177,83.342,17,0,5,0,12,8,10,35,98
3391.0,19,63.158,2.028,900.0,3.768,1.859,0.31,115.262,11,0,3,0,7,14,10,35,98
3385.0,37,37.838,1.403,2063.0,1.641,2.806,0.158,64.011,28,0,3,0,14,8,10,35,98
3377.0,16,68.75,2.126,1000.0,3.377,1.159,0.306,133.629,6,0,5,0,8,15,10,35,98
3373.998,26,57.692,1.602,1528.001,2.208,1.496,0.22,89.982,14,0,4,0,8,12,10,35,98
3363.0,16,62.5,2.816,985.999,3.411,1.69,0.415,158.422,0,0,0,0,11,10,10,35,98
3355.0,41,43.902,1.566,1974.0,1.7,2.609,0.19,54.763,29,0,2,0,7,5,10,35,98
3349.001,18,55.556,2.116,1200.0,2.791,2.116,0.3,115.827,10,0,3,0,8,15,10,35,98
3339.999,27,40.741,1.586,1463.0,2.283,2.739,0.199,81.628,19,0,3,0,14,15,10,35,98
3339.001,35,34.286,1.522,1600.0,2.087,4.058,0.169,58.706,32,0,2,0,12,10,10,35,98
3339.0,31,41.935,1.484,1500.0,2.226,2.625,0.175,70.558,23,0,3,0,11,10,10,35,98
3338.001,53,43.396,1.245,3152.001,1.059,1.841,0.111,46.165,34,0,4,0,14,4,10,35,98
3327.0,35,40.0,1.411,1500.0,2.218,2.721,0.157,63.278,27,0,3,0,14,11,10,35,98
3305.001,32,43.75,1.413,2463.0,1.342,2.019,0.178,79.79,20,0,4,0,14,8,10,35,98
3295.998,33,60.606,1.538,2071.0,1.592,1.23,0.211,73.468,15,0,4,0,7,6,10,35,98
3295.001,18,66.667,2.679,866.0,3.805,1.339,0.459,150.232,0,0,0,0,11,8,10,35,98
3295.0,40,32.5,1.471,1673.0,1.97,3.96,0.161,55.05,35,0,2,0,13,8,10,35,98
3287.999,29,41.379,1.498,1500.0,2.192,2.747,0.178,73.124,22,0,3,0,13,14,10,35,98
3283.001,47,38.298,1.304,3212.001,1.022,2.608,0.134,51.792,36,0,3,0,12,5,10,35,98
3282.999,51,31.373,1.357,2863.0,1.147,3.901,0.132,43.554,46,0,2,0,14,5,10,35,98
3278.999,35,25.714,1.745,1700.0,1.929,8.532,0.174,48.64,44,0,1,0,12,14,10,35,98
3272.0,16,75.0,4.03,618.001,5.294,1.343,0.591,156.233,0,0,0,0,8,12,10,35,98
3265.0,51,49.02,1.241,3261.0,1.001,1.39,0.115,50.429,27,0,5,0,12,4,10,35,98
3255.003,52,63.462,1.318,2260.0,1.44,0.839,0.109,36.869,20,0,5,0,6,1,10,35,98
3252.001,40,72.5,1.578,2336.001,1.392,0.599,0.159,49.593,0,0,0,0,7,2,10,35,98
3240.998,50,42.0,1.419,2025.0,1.6,2.636,0.153,42.683,38,0,2,0,7,4,10,35,98
3240.001,32,40.625,1.45,1609.0,2.014,2.677,0.162,65.475,24,0,3,0,12,10,10,35,98
3230.999,19,57.895,2.346,800.0,4.039,2.56,0.35,99.531,12,0,2,0,6,11,10,35,98
3230.0,11,81.818,3.153,717.001,4.505,1.051,0.497,186.146,3,0,5,0,6,15,10,35,98
3219.999,61,31.148,1.287,2372.0,1.358,3.795,0.114,36.385,56,0,2,0,13,4,10,35,98
3209.999,50,50.0,1.252,2502.0,1.283,1.352,0.118,50.294,25,0,5,0,11,4,10,35,98
3209.998,62,30.645,1.282,2372.0,1.353,3.845,0.111,35.805,57,0,2,0,14,4,10,35,98
3208.0,31,45.161,1.486,1179.999,2.719,2.335,0.173,67.176,22,0,3,0,10,10,10,35,98
3207.0,13,84.615,3.672,400.0,8.017,1.002,0.528,149.313,3,0,4,0,5,9,10,35,98
3207.0,52,46.154,1.254,2628.001,1.22,1.672,0.119,47.091,31,0,4,0,10,4,10,35,98
3195.0,37,37.838,1.38,2063.0,1.549,2.761,0.152,61.024,28,0,3,0,13,8,10,35,98
3186.999,47,53.191,1.319,2260.001,1.41,1.319,0.134,48.822,25,0,4,0,8,4,10,35,98
3186.0,16,68.75,3.637,618.001,5.155,1.653,0.558,154.497,0,0,0,0,9,12,10,35,98
3177.998,30,40.0,1.461,1500.0,2.119,2.799,0.168,69.081,23,0,3,0,14,14,10,35,98
3177.001,13,69.231,6.819,287.0,11.07,3.031,0.697,182.16,0,0,0,0,12,15,10,35,98
3171.001,31,38.71,1.587,1200.0,2.643,3.571,0.181,61.021,27,0,2,0,9,9,10,35,98
3165.001,27,62.963,1.916,1492.001,2.121,1.127,0.286,87.596,0,0,0,0,7,5,10,35,98
3163.999,54,38.889,1.257,2052.001,1.542,2.455,0.107,39.127,41,0,3,0,15,4,10,35,98
3162.999,24,50.0,1.594,1200.0,2.636,1.859,0.227,97.857,13,0,4,0,9,14,10,35,98
3140.999,15,66.667,4.138,639.001,4.915,2.069,0.599,169.318,0,0,0,0,11,12,10,35,98
3138.999,49,63.265,1.326,1743.999,1.8,0.855,0.127,44.714,19,0,5,0,7,3,10,35,98
3138.0,8,87.5,8.845,400.0,7.845,1.264,0.912,268.369,1,0,4,0,5,15,10,35,98
3137.0,13,69.231,6.745,287.0,10.93,2.998,0.655,182.558,0,0,0,0,10,15,10,35,98
3133.998,27,48.148,1.461,1200.0,2.612,1.91,0.194,85.653,17,0,4,0,10,14,10,35,98
3132.997,28,53.571,1.448,1241.0,2.525,1.351,0.197,88.14,14,0,5,0,10,11,10,35,98
3132.002,14,78.571,6.485,254.001,12.331,1.769,0.679,167.221,0,0,0,0,7,13,10,35,98
3126.997,22,59.091,2.749,956.001,3.271,1.903,0.402,110.744,0,0,0,0,10,6,10,35,98
3120.0,20,55.0,2.114,1000.0,3.12,2.691,0.303,100.053,14,0,2,0,7,13,10,35,98
3115.002,32,43.75,1.389,2463.0,1.265,1.985,0.171,76.1,20,0,4,0,13,8,10,35,98
3107.001,16,62.5,2.882,985.999,3.151,1.729,0.393,144.981,0,0,0,0,12,10,10,35,98
3104.998,28,39.286,1.575,946.001,3.282,3.866,0.193,66.807,27,0,2,0,10,13,10,35,98
3099.0,20,55.0,1.751,885.0,3.502,1.751,0.24,97.663,10,0,4,0,9,15,10,35,98
3096.999,56,62.5,1.278,2240.0,1.383,0.84,0.102,34.858,22,0,5,0,7,2,10,35,98
3093.0,51,31.373,1.336,2863.0,1.08,3.842,0.127,41.53,46,0,2,0,13,5,10,35,98
3092.999,32,46.875,1.387,1455.0,2.126,1.849,0.165,71.634,20,0,4,0,10,11,10,35,98
3092.999,44,61.364,1.326,2476.001,1.249,0.933,0.119,44.694,19,0,5,0,8,4,10,35,98
3059.999,31,48.387,1.36,1835.001,1.668,1.541,0.16,76.228,17,0,5,0,14,8,10,35,98
3053.997,51,50.98,1.239,2539.0,1.203,1.287,0.111,46.126,25,0,5,0,10,4,10,35,98
3040.001,30,43.333,1.422,2000.0,1.52,1.969,0.167,75.478,18,0,4,0,12,10,10,35,98
3039.002,18,66.667,2.725,831.001,3.657,1.362,0.441,138.284,0,0,0,0,12,8,10,35,98
3038.0,8,87.5,7.076,500.0,6.076,1.011,0.843,260.882,1,0,5,0,5,15,10,35,98
3035.999,42,35.714,1.399,1557.0,1.95,3.545,0.142,45.404,38,0,2,0,10,7,10,35,98
3035.001,29,44.828,1.532,1500.0,2.023,2.24,0.178,69.388,19,0,3,0,9,10,10,35,98
3032.998,16,68.75,3.456,595.0,5.097,1.571,0.498,140.735,0,0,0,0,14,11,10,35,98
3032.0,24,54.167,2.011,825.0,3.675,2.32,0.292,77.939,15,0,2,0,6,8,10,35,98
3031.999,13,76.923,6.615,238.0,12.74,1.984,0.672,174.453,0,0,0,0,8,13,10,35,98
3028.999,42,33.333,1.388,1932.0,1.568,3.867,0.139,46.052,39,0,2,0,11,7,10,35,98
3021.0,34,35.294,1.458,1600.0,1.888,4.009,0.16,55.671,33,0,2,0,13,12,10,35,98
3018.998,73,41.096,1.192,3186.002,0.948,2.105,0.075,24.826,52,0,3,0,8,1,10,35,98
3014.0,23,65.217,1.67,1834.001,1.643,1.002,0.2,80.13,9,0,5,0,8,10,10,35,98
3013.001,24,62.5,1.729,1545.998,1.949,1.268,0.232,84.597,10,0,4,0,7,9,10,35,98
3010.999,35,34.286,1.443,1600.0,1.882,4.088,0.155,54.389,34,0,2,0,14,12,10,35,98
3009.0,20,75.0,2.003,808.0,3.724,0.801,0.297,97.797,6,0,5,0,6,8,10,35,98
3007.0,46,34.783,1.376,2439.001,1.233,3.44,0.139,43.883,40,0,2,0,9,5,10,35,98
2990.0,32,37.5,1.831,900.0,3.322,5.492,0.203,42.461,36,0,1,0,5,2,10,35,98
2966.0,9,88.889,12.677,254.001,11.677,1.585,0.96,228.802,0,0,0,0,5,13,10,35,98
2962.001,17,52.941,2.346,800.0,3.703,2.868,0.325,106.509,11,0,2,0,7,15,10,35,98
2951.0,19,57.895,2.135,800.0,3.689,2.523,0.308,85.956,13,0,2,0,6,10,10,35,98
2946.999,34,32.353,1.46,1901.0,1.55,4.249,0.149,51.974,32,0,2,0,14,10,10,35,98
2923.0,31,45.161,1.365,1455.0,2.009,1.951,0.16,72.321,20,0,4,0,12,12,10,35,98
2921.999,6,83.333,10.74,100.0,29.22,6.444,0.837,247.599,3,0,1,0,5,15,10,35,98
2920.0,25,44.0,1.559,1500.0,1.947,2.55,0.2,79.782,17,0,3,0,9,14,10,35,98
2911.999,14,64.286,2.82,1000.0,2.912,2.507,0.414,114.333,8,0,2,0,5,11,10,35,98
2904.999,26,46.154,1.427,1663.0,1.747,2.022,0.178,80.832,17,0,4,0,13,14,10,35,98
2901.997,19,63.158,1.725,1528.001,1.899,1.15,0.256,112.659,8,0,5,0,8,13,10,35,98
2899.999,32,56.25,1.426,1761.001,1.647,1.347,0.175,67.063,17,0,4,0,8,7,10,35,98
2896.001,30,26.667,1.762,1600.0,1.81,8.37,0.176,49.038,38,0,1,0,12,15,10,35,98
2895.001,14,64.286,3.734,859.999,3.366,2.074,0.477,167.52,0,0,0,0,11,14,10,35,98
2892.999,40,35.0,1.402,1600.0,1.808,3.605,0.144,46.458,36,0,2,0,9,7,10,35,98
2891.999,13,84.615,2.928,500.0,5.784,0.799,0.452,139.286,3,0,5,0,5,11,10,35,98
2891.0,30,46.667,1.425,1579.999,1.83,1.731,0.165,71.127,17,0,4,0,10,10,10,35,98
2885.0,15,66.667,4.606,438.0,6.587,2.303,0.586,154.981,0,0,0,0,12,12,10,35,98
2884.999,27,44.444,1.401,1663.0,1.735,2.101,0.17,78.119,18,0,4,0,14,14,10,35,98
2881.001,21,42.857,1.847,600.0,4.802,3.489,0.232,77.923,17,0,2,0,9,15,10,35,98
2879.999,29,41.379,1.417,1306.0,2.205,2.717,0.165,66.958,23,0,3,0,12,13,10,35,98
2872.0,46,36.957,1.266,3422.001,0.839,2.681,0.122,47.143,36,0,3,0,11,5,10,35,98
2859.998,12,66.667,3.383,600.0,4.767,2.537,0.491,140.293,6,0,2,0,5,12,10,35,98
2848.0,36,36.111,1.712,1100.0,2.589,5.268,0.184,37.122,40,0,1,0,5,1,10,35,98
2846.999,39,46.154,1.278,2448.002,1.163,1.562,0.133,60.272,20,0,5,0,11,5,10,35,98
2841.0,14,71.429,2.136,1120.0,2.537,1.068,0.317,131.665,5,0,5,0,7,15,10,35,98
2839.001,15,60.0,2.42,800.0,3.549,2.688,0.363,108.278,10,0,2,0,6,14,10,35,98
2839.0,15,66.667,2.014,1322.001,2.148,1.41,0.301,118.072,7,0,4,0,7,15,10,35,98
2839.0,30,43.333,1.394,2000.0,1.419,1.931,0.159,71.252,18,0,4,0,11,10,10,35,98
2836.0,31,48.387,1.334,1869.001,1.517,1.511,0.152,71.693,17,0,5,0,13,8,10,35,98
2831.999,25,40.0,1.616,1200.0,2.36,3.716,0.198,69.601,23,0,2,0,9,13,10,35,98
2827.999,92,31.522,1.175,2328.002,1.215,3.281,0.066,18.995,81,0,2,0,10,1,10,35,98
2802.998,35,22.857,1.609,1933.0,1.45,9.254,0.145,40.405,46,0,1,0,14,14,10,35,98
2798.997,21,52.381,1.666,1628.001,1.719,2.121,0.226,87.72,14,0,3,0,8,13,10,35,98
2795.999,29,48.276,1.404,1285.0,2.176,1.805,0.166,71.033,17,0,4,0,9,12,10,35,98
2787.001,14,71.429,3.21,1013.0,2.751,1.284,0.438,159.916,0,0,0,0,9,14,10,35,98
2778.999,17,58.824,2.158,800.0,3.474,2.589,0.317,91.847,12,0,2,0,6,12,10,35,98
2773.0,13,76.923,2.387,528.001,5.252,0.955,0.383,140.934,4,0,5,0,6,14,10,35,98
2768.0,55,41.818,1.324,1825.0,1.517,2.476,0.12,32.06,42,0,2,0,7,3,10,35,98
2757.999,56,33.929,1.276,2000.0,1.379,3.357,0.11,33.183,50,0,2,0,9,4,10,35,98
2757.0,34,32.353,1.431,1901.0,1.45,4.162,0.142,49.056,32,0,2,0,13,10,10,35,98
2743.998,40,47.5,1.268,2237.002,1.227,1.468,0.127,55.706,20,0,5,0,10,5,10,35,98
2741.0,15,80.0,2.37,500.0,5.482,0.79,0.38,116.701,4,0,5,0,5,8,10,35,98
2740.999,26,53.846,1.447,1241.0,2.209,1.344,0.171,73.272,12,0,5,0,9,11,10,35,98
2733.999,72,34.722,1.228,2533.001,1.079,2.947,0.091,24.91,60,0,2,0,8,2,10,35,98
2732.001,25,56.0,1.525,1132.999,2.411,1.416,0.178,71.257,13,0,4,0,8,9,10,35,98
2722.997,50,44.0,1.259,2228.001,1.222,2.003,0.104,35.304,35,0,3,0,8,4,10,35,98
2721.999,31,45.161,1.34,1455.0,1.871,1.915,0.153,68.468,20,0,4,0,11,12,10,35,98
2713.0,16,75.0,2.356,800.0,3.391,0.982,0.389,111.624,5,0,4,0,5,8,10,35,98
2712.999,35,22.857,1.603,1933.0,1.404,9.016,0.145,40.011,45,0,1,0,13,14,10,35,98
2702.998,26,50.0,1.386,1741.0,1.553,1.493,0.18,86.167,14,0,5,0,11,14,10,35,98
2702.001,68,32.353,1.211,2746.001,0.984,3.523,0.087,26.274,64,0,2,0,12,3,10,35,98
2700.0,22,59.091,2.012,1456.001,1.854,1.393,0.304,100.094,0,0,0,0,11,6,10,35,98
2698.0,33,39.394,1.346,1500.0,1.799,2.692,0.142,57.175,26,0,3,0,13,12,10,35,98
2697.999,92,30.435,1.165,2623.002,1.029,3.41,0.062,17.881,82,0,2,0,11,1,10,35,98
2691.0,36,33.333,1.396,1600.0,1.682,3.955,0.139,47.365,34,0,2,0,12,9,10,35,98
2671.0,12,66.667,2.335,1376.0,1.941,1.46,0.382,143.908,5,0,4,0,6,15,10,35,98
2668.999,37,24.324,1.556,1900.0,1.405,8.299,0.139,37.051,48,0,1,0,11,12,10,35,98
2661.0,19,42.105,2.331,800.0,3.326,5.826,0.248,66.719,20,0,1,0,8,15,10,35,98
2654.997,15,66.667,3.652,639.001,4.155,1.826,0.542,146.566,0,0,0,0,10,12,10,35,98
2654.0,32,43.75,1.316,2063.0,1.286,1.974,0.138,61.291,21,0,4,0,13,11,10,35,98
2648.0,29,41.379,1.368,2491.0,1.063,2.052,0.146,66.622,18,0,4,0,14,10,10,35,98
2643.997,44,34.091,1.322,1957.0,1.351,3.615,0.121,38.344,41,0,2,0,10,6,10,35,98
2643.0,8,75.0,5.405,300.0,8.81,1.802,0.702,228.374,2,0,3,0,5,15,10,35,98
2642.999,67,38.806,1.251,2641.001,1.001,2.55,0.096,24.615,52,0,2,0,7,2,10,35,98
2638.0,15,66.667,3.505,595.0,4.434,1.753,0.491,137.233,0,0,0,0,14,12,10,35,98
2634.998,21,57.143,1.599,1528.001,1.724,1.466,0.226,92.263,11,0,4,0,8,13,10,35,98
2632.999,23,39.13,2.053,800.0,3.291,5.703,0.215,54.759,25,0,1,0,8,14,10,35,98
2627.0,17,70.588,1.876,1000.0,2.627,0.938,0.284,116.89,6,0,5,0,7,13,10,35,98
2621.999,8,62.5,5.37,300.0,8.74,6.444,0.56,161.341,6,0,1,0,5,14,10,35,98
2621.999,7,71.429,5.37,200.0,13.11,3.222,0.68,222.459,3,0,2,0,5,15,10,35,98
2615.0,13,76.923,2.634,800.0,3.269,1.054,0.382,117.53,4,0,4,0,5,10,10,35,98
2613.0,67,32.836,1.211,2746.001,0.952,3.412,0.086,25.562,62,0,2,0,11,3,10,35,98
2612.0,12,83.333,2.741,500.0,5.224,0.822,0.41,130.716,3,0,5,0,5,9,10,35,98
2605.999,14,57.143,2.629,1000.0,2.606,2.629,0.371,104.624,8,0,2,0,5,9,10,35,98
2605.999,14,57.143,2.629,1000.0,2.606,2.629,0.371,104.642,8,0,2,0,5,10,10,35,98
2600.998,35,25.714,1.578,1800.0,1.445,7.89,0.144,37.723,45,0,1,0,10,12,10,35,98
2595.999,47,38.298,1.24,3247.001,0.8,2.481,0.112,42.073,36,0,3,0,10,5,10,35,98
2594.001,12,58.333,2.621,800.0,3.243,2.996,0.387,123.155,8,0,2,0,6,15,10,35,98
2588.0,34,38.235,1.32,1500.0,1.725,2.741,0.134,54.048,27,0,3,0,14,12,10,35,98
2587.998,15,60.0,3.061,595.0,4.35,2.04,0.445,131.159,0,0,0,0,13,11,10,35,98
2585.999,12,83.333,2.724,500.0,5.172,0.817,0.405,129.192,3,0,5,0,5,10,10,35,98
2580.999,12,75.0,2.721,900.0,2.868,1.511,0.423,128.39,5,0,3,0,5,12,10,35,98
2578.999,29,62.069,1.397,1808.0,1.426,1.009,0.144,56.899,13,0,5,0,8,7,10,35,98
2577.0,16,75.0,2.031,834.001,3.09,0.846,0.292,102.479,5,0,5,0,6,11,10,35,98
2576.999,23,52.174,1.429,2000.0,1.288,1.429,0.185,87.682,12,0,5,0,12,15,10,35,98
2574.0,11,81.818,3.145,400.0,6.435,1.048,0.479,147.644,3,0,4,0,5,12,10,35,98
2568.999,37,24.324,1.524,1900.0,1.352,8.299,0.134,35.456,49,0,1,0,11,11,10,35,98
2567.0,30,60.0,1.448,2174.0,1.181,1.207,0.182,63.54,14,0,4,0,7,7,10,35,98
2557.998,13,46.154,2.968,500.0,5.116,6.43,0.347,92.576,13,0,1,0,6,14,10,35,98
2551.0,21,52.381,1.85,800.0,3.189,2.523,0.253,69.477,15,0,2,0,6,9,10,35,98
2550.999,36,33.333,1.399,1400.0,1.822,3.73,0.149,48.829,32,0,2,0,15,11,10,35,98
2548.0,58,36.207,1.26,2800.0,0.91,2.94,0.1,28.708,49,0,2,0,8,3,10,35,98
2548.0,32,37.5,1.34,2191.0,1.163,2.791,0.127,51.167,25,0,3,0,14,10,10,35,98
2541.0,30,50.0,1.552,1427.999,1.779,2.38,0.186,48.102,23,0,2,0,6,6,10,35,98
2537.0,52,55.769,1.25,2395.0,1.059,1.121,0.112,36.9,25,0,4,0,7,3,10,35,98
2530.0,19,57.895,1.613,1241.0,2.039,1.32,0.206,87.782,8,0,5,0,9,15,10,35,98
2520.998,15,73.333,3.369,618.001,4.079,1.225,0.498,129.384,0,0,0,0,10,9,10,35,98
2511.999,17,52.941,2.256,1000.0,2.512,2.507,0.334,90.101,10,0,2,0,5,8,10,35,98
2493.999,9,66.667,3.494,600.0,4.157,2.912,0.498,154.139,5,0,2,0,5,14,10,35,98
2492.998,41,34.146,1.328,1857.0,1.342,3.605,0.123,39.321,38,0,2,0,9,6,10,35,98
2485.001,12,66.667,3.948,555.999,4.469,1.974,0.517,151.324,0,0,0,0,13,15,10,35,98
2475.999,22,50.0,1.476,1663.0,1.489,1.745,0.193,81.105,13,0,4,0,15,15,10,35,98
2465.0,30,46.667,1.342,2063.0,1.195,1.726,0.158,66.124,18,0,4,0,15,8,10,35,98
2462.001,16,56.25,1.912,900.0,2.736,1.912,0.268,98.191,9,0,3,0,7,15,10,35,98
2458.998,23,52.174,1.437,1741.0,1.412,1.437,0.19,86.556,11,0,5,0,9,14,10,35,98
2458.0,29,41.379,1.341,2491.0,0.987,2.012,0.138,62.44,18,0,4,0,13,10,10,35,98
2456.998,24,58.333,1.447,2028.001,1.212,1.137,0.168,71.272,11,0,5,0,8,12,10,35,98
2449.001,14,64.286,3.313,658.998,3.716,1.84,0.424,143.067,0,0,0,0,12,14,10,35,98
2448.998,48,47.917,1.26,1702.0,1.439,1.753,0.106,33.391,31,0,3,0,7,4,10,35,98
2446.0,43,32.558,1.306,1800.0,1.359,3.731,0.12,38.914,40,0,2,0,12,7,10,35,98
2443.999,33,42.424,1.278,2063.0,1.185,2.008,0.125,55.909,22,0,4,0,14,11,10,35,98
2437.0,25,56.0,1.526,1402.0,1.738,1.744,0.183,62.603,15,0,3,0,7,9,10,35,98
2436.999,29,48.276,1.305,2000.0,1.218,1.491,0.149,70.202,16,0,5,0,12,11,10,35,98
2432.999,15,66.667,2.159,1500.0,1.622,1.511,0.324,96.484,7,0,3,0,5,11,10,35,98
2427.0,61,54.098,1.2,2772.001,0.876,1.127,0.083,26.535,30,0,4,0,7,2,10,35,98
2420.0,31,22.581,1.605,1833.0,1.32,9.171,0.143,39.568,40,0,1,0,14,15,10,35,98
2414.999,14,64.286,3.184,645.0,3.744,1.769,0.414,140.228,0,0,0,0,12,13,10,35,98
2409.0,14,64.286,2.688,1228.0,1.962,1.493,0.377,144.653,0,0,0,0,10,14,10,35,98
2407.0,39,46.154,1.401,1510.0,1.594,2.335,0.144,36.152,30,0,2,0,6,4,10,35,98
2403.002,44,40.909,1.215,4212.001,0.571,1.889,0.111,47.288,28,0,4,0,12,5,10,35,98
2403.001,44,43.182,1.226,3811.001,0.631,1.742,0.115,47.131,26,0,4,0,10,5,10,35,98
2401.0,16,75.0,3.063,618.001,3.885,1.021,0.478,109.497,0,0,0,0,8,9,10,35,98
2400.998,36,25.0,1.511,1800.0,1.334,7.89,0.133,34.185,47,0,1,0,10,11,10,35,98
2397.998,33,24.242,1.558,1900.0,1.262,8.372,0.143,38.924,43,0,1,0,11,13,10,35,98
2396.999,27,44.444,1.333,1206.0,1.988,1.999,0.157,70.657,18,0,4,0,12,13,10,35,98
2395.002,60,43.333,1.158,3086.001,0.776,1.692,0.082,32.629,38,0,4,0,12,3,10,35,98
2392.001,32,40.625,1.307,1500.0,1.595,2.613,0.123,48.555,26,0,3,0,12,9,10,35,98
2392.001,51,47.059,1.171,3261.0,0.734,1.414,0.085,37.286,28,0,5,0,13,4,10,35,98
2388.0,15,73.333,3.052,618.001,3.864,1.11,0.463,117.956,0,0,0,0,9,9,10,35,98
2385.999,10,50.0,3.386,400.0,5.965,6.772,0.377,106.807,10,0,1,0,6,15,10,35,98
2381.001,50,44.0,1.186,2752.001,0.865,1.725,0.091,36.224,32,0,4,0,15,4,10,35,98
2376.997,37,45.946,1.283,2228.001,1.067,2.113,0.125,44.609,28,0,3,0,8,6,10,35,98
2373.0,31,64.516,1.502,2346.001,1.012,0.826,0.15,51.578,0,0,0,0,5,1,10,35,98
2371.999,18,38.889,2.186,839.0,2.827,6.246,0.224,59.804,20,0,1,0,7,14,10,35,98
2368.999,39,23.077,1.465,1800.0,1.316,8.299,0.124,32.405,51,0,1,0,11,10,10,35,98
2365.999,27,40.741,1.358,1507.001,1.57,2.717,0.153,62.292,22,0,3,0,11,13,10,35,98
2358.001,32,46.875,1.491,2027.999,1.163,2.386,0.17,43.863,24,0,2,0,6,5,10,35,98
2358.0,32,37.5,1.314,2191.0,1.076,2.738,0.12,47.776,25,0,3,0,13,10,10,35,98
2353.999,31,45.161,1.294,1455.0,1.618,1.849,0.139,60.613,20,0,4,0,10,12,10,35,98
2344.999,35,40.0,1.301,1763.0,1.33,2.415,0.13,49.296,26,0,3,0,15,8,10,35,98
2338.999,42,42.857,1.365,1299.0,1.801,2.427,0.125,30.29,32,0,2,0,5,1,10,35,98
2338.999,17,70.588,1.78,1028.001,2.275,0.89,0.248,90.951,6,0,5,0,6,12,10,35,98
2334.999,31,67.742,1.402,2788.002,0.838,0.668,0.135,56.183,0,0,0,0,8,4,10,35,98
2334.997,26,50.0,1.334,1741.0,1.341,1.436,0.164,76.276,14,0,5,0,10,14,10,35,98
2330.999,19,57.895,1.706,1328.001,1.755,1.706,0.236,75.199,11,0,3,0,6,11,10,35,98
2330.0,30,23.333,1.597,1833.0,1.271,8.9,0.142,39.095,39,0,1,0,13,15,10,35,98
2325.0,19,63.158,1.646,1200.0,1.938,1.234,0.24,92.781,9,0,4,0,7,13,10,35,98
2322.001,21,66.667,1.645,1427.999,1.626,1.058,0.229,72.23,9,0,4,0,6,8,10,35,98
2321.999,9,55.556,3.58,300.0,7.74,6.444,0.407,110.717,9,0,1,0,5,12,10,35,98
2320.999,38,26.316,1.484,1579.999,1.469,7.121,0.128,32.37,48,0,1,0,10,10,10,35,98
2320.0,19,57.895,1.644,1200.0,1.933,1.794,0.229,84.043,12,0,3,0,7,13,10,35,98
2317.002,12,66.667,4.548,555.999,4.167,2.274,0.519,141.074,0,0,0,0,14,15,10,35,98
2315.0,30,43.333,1.289,2063.0,1.122,1.984,0.132,59.808,20,0,4,0,13,12,10,35,98
2314.001,13,69.231,1.964,1200.0,1.928,1.309,0.31,111.727,6,0,4,0,6,14,10,35,98
2311.001,16,75.0,1.924,834.001,2.771,0.802,0.259,89.726,5,0,5,0,6,10,10,35,98
2307.001,37,64.865,1.325,2795.0,0.825,0.718,0.102,43.398,0,0,0,0,8,1,10,35,98
2306.999,27,48.148,1.405,2228.001,1.035,2.053,0.146,53.823,19,0,3,0,8,9,10,35,98
2300.0,15,40.0,2.438,639.0,3.599,6.5,0.249,70.432,16,0,1,0,7,15,10,35,98
2298.002,29,44.828,1.302,2099.0,1.095,1.903,0.129,56.668,19,0,4,0,12,9,10,35,98
2283.001,61,40.984,1.238,1874.0,1.218,2.377,0.088,21.286,48,0,2,0,6,1,10,35,98
2281.0,31,38.71,1.304,1500.0,1.521,2.717,0.125,49.781,25,0,3,0,11,9,10,35,98
2280.0,29,34.483,1.38,1600.0,1.425,4.14,0.143,50.015,30,0,2,0,12,13,10,35,98
2277.0,15,60.0,2.02,1689.999,1.347,1.347,0.269,112.1,0,0,0,0,14,10,10,35,98
2276.0,23,60.87,1.779,1190.001,1.913,1.144,0.244,80.592,0,0,0,0,12,6,10,35,98
2274.0,11,81.818,2.516,500.0,4.548,0.839,0.392,130.722,3,0,5,0,5,12,10,35,98
2268.997,44,31.818,1.27,2332.0,0.973,3.81,0.108,34.188,42,0,2,0,11,6,10,35,98
2267.999,31,41.935,1.315,1207.001,1.879,2.428,0.126,48.435,24,0,3,0,10,9,10,35,98
2265.0,48,35.417,1.199,3771.001,0.601,2.679,0.095,36.405,38,0,3,0,14,5,10,35,98
2257.998,14,42.857,2.411,676.0,3.34,6.43,0.274,69.497,16,0,1,0,6,12,10,35,98
2250.999,54,38.889,1.19,2100.0,1.072,2.267,0.082,29.053,39,0,3,0,9,4,10,35,98
2247.002,12,66.667,5.614,280.0,8.025,2.807,0.616,123.273,0,0,0,0,9,15,10,35,98
2243.002,17,58.824,2.032,1535.0,1.461,1.422,0.313,110.035,0,0,0,0,14,8,10,35,98
2243.001,27,66.667,1.449,2090.0,1.073,0.805,0.165,55.892,10,0,5,0,6,5,10,35,98
2241.001,18,66.667,1.7,1202.999,1.863,1.134,0.23,75.656,8,0,4,0,6,9,10,35,98
2239.997,33,57.576,1.28,1976.001,1.134,1.078,0.114,45.711,16,0,5,0,8,6,10,35,98
2238.0,51,45.098,1.187,2409.0,0.929,1.6,0.089,33.991,29,0,4,0,9,4,10,35,98
2232.999,25,36.0,1.77,878.999,2.54,5.703,0.168,41.075,29,0,1,0,8,12,10,35,98
2232.002,34,67.647,1.37,2788.002,0.801,0.655,0.119,47.017,0,0,0,0,8,3,10,35,98
2229.997,32,25.0,1.544,1800.0,1.239,7.912,0.142,37.613,41,0,1,0,10,13,10,35,98
2227.001,27,48.148,1.348,1600.999,1.391,1.659,0.134,55.873,16,0,4,0,9,9,10,35,98
2226.0,14,71.429,2.113,1200.0,1.855,1.057,0.314,98.513,5,0,4,0,5,11,10,35,98
2223.0,27,29.63,1.674,1100.0,2.021,6.904,0.154,39.663,33,0,1,0,9,14,10,35,98
2212.999,39,33.333,1.325,1473.0,1.502,3.467,0.128,40.797,34,0,2,0,15,8,10,35,98
2205.001,17,70.588,1.735,808.0,2.729,0.868,0.233,82.601,6,0,5,0,6,9,10,35,98
2198.999,35,57.143,1.275,1976.001,1.113,1.02,0.112,44.154,16,0,5,0,8,5,10,35,98
2193.0,14,57.143,3.042,724.0,3.029,2.281,0.433,126.723,0,0,0,0,13,12,10,35,98
2184.0,95,28.421,1.126,2950.002,0.74,3.627,0.049,14.201,87,0,2,0,12,1,10,35,98
2180.999,80,36.25,1.115,3594.001,0.607,2.423,0.05,17.528,63,0,3,0,12,1,10,35,98
2169.999,33,39.394,1.289,1500.0,1.447,2.479,0.126,47.645,25,0,3,0,15,11,10,35,98
2160.001,43,39.535,1.196,4422.001,0.488,1.97,0.105,44.773,27,0,4,0,11,5,10,35,98
2156.0,39,51.282,1.257,3325.001,0.648,1.319,0.123,46.271,21,0,4,0,8,5,10,35,98
2153.001,18,66.667,1.673,1202.999,1.79,1.115,0.214,71.565,8,0,4,0,6,10,10,35,98
2149.0,49,30.612,1.244,2663.0,0.807,3.65,0.105,32.745,44,0,2,0,15,5,10,35,98
2146.001,41,36.585,1.224,2212.0,0.97,2.61,0.104,40.046,32,0,3,0,12,7,10,35,98
2139.001,15,60.0,1.792,900.0,2.377,1.792,0.261,87.034,9,0,3,0,6,14,10,35,98
2127.0,14,64.286,2.013,1500.0,1.418,1.566,0.281,85.628,7,0,3,0,5,9,10,35,98
2127.0,14,64.286,2.013,1500.0,1.418,1.566,0.281,85.655,7,0,3,0,5,10,10,35,98
2120.999,39,25.641,1.424,1779.999,1.192,7.121,0.118,29.377,50,0,1,0,10,9,10,35,98
2118.999,31,35.484,1.365,1400.0,1.514,3.6,0.138,45.104,29,0,2,0,15,14,10,35,98
2116.0,15,66.667,2.165,868.0,2.438,1.082,0.362,115.184,0,0,0,0,11,9,10,35,98
2116.0,52,46.154,1.146,3261.0,0.649,1.432,0.075,33.105,29,0,5,0,14,4,10,35,98
2109.0,36,30.556,1.31,1691.0,1.247,4.05,0.112,37.892,34,0,2,0,13,9,10,35,98
2105.0,31,41.935,1.251,2063.0,1.02,2.02,0.12,54.152,21,0,4,0,14,12,10,35,98
2102.998,36,50.0,1.287,2291.999,0.918,1.787,0.129,42.074,24,0,3,0,7,6,10,35,98
2098.999,37,29.73,1.3,1691.0,1.241,4.136,0.109,36.89,35,0,2,0,14,9,10,35,98
2094.001,12,58.333,1.997,976.0,2.145,1.997,0.301,106.658,7,0,3,0,6,15,10,35,98
2087.001,15,53.333,1.926,1689.999,1.235,1.686,0.249,104.125,0,0,0,0,13,10,10,35,98
2081.001,22,72.727,1.52,1028.999,2.022,0.76,0.174,57.928,8,0,5,0,6,7,10,35,98
2080.0,38,42.105,1.359,1957.0,1.063,2.462,0.127,31.217,29,0,2,0,5,2,10,35,98
2080.0,17,64.706,1.65,1202.999,1.729,1.2,0.226,78.517,8,0,4,0,6,12,10,35,98
2077.0,25,36.0,1.692,978.001,2.124,5.641,0.171,36.286,30,0,1,0,5,4,10,35,98
2075.001,48,35.417,1.182,3771.001,0.55,2.642,0.09,34.124,38,0,3,0,13,5,10,35,98
2074.001,87,31.034,1.136,2563.0,0.809,3.199,0.052,14.588,76,0,2,0,9,1,10,35,98
2070.0,16,68.75,2.281,753.0,2.749,1.037,0.363,105.123,0,0,0,0,12,9,10,35,98
2068.999,40,22.5,1.383,2000.0,1.034,8.299,0.109,27.973,54,0,1,0,11,9,10,35,98
2067.999,15,60.0,2.19,1082.0,1.911,1.46,0.354,110.967,0,0,0,0,15,11,10,35,98
2067.998,29,48.276,1.258,1741.0,1.188,1.438,0.136,64.28,16,0,5,0,11,12,10,35,98
2065.0,19,57.895,1.626,1328.001,1.555,1.626,0.208,65.379,11,0,3,0,6,10,10,35,98
2060.0,34,67.647,1.317,1324.001,1.556,0.744,0.124,40.728,13,0,5,0,6,4,10,35,98
2057.999,13,61.538,2.861,645.0,3.191,1.788,0.389,135.978,0,0,0,0,11,13,10,35,98
2057.998,15,40.0,2.143,676.0,3.044,6.43,0.239,58.59,18,0,1,0,6,11,10,35,98
2057.001,28,46.429,1.286,1770.999,1.161,1.78,0.12,50.99,18,0,4,0,10,9,10,35,98
2033.0,38,55.263,1.277,3738.0,0.544,1.156,0.133,45.452,18,0,4,0,7,5,10,35,98
2032.0,26,50.0,1.508,1227.999,1.655,2.32,0.178,45.719,20,0,2,0,6,7,10,35,98
2030.0,40,45.0,1.184,2261.0,0.898,1.513,0.101,45.948,22,0,5,0,12,5,10,35,98
2021.999,10,50.0,2.685,600.0,3.37,6.444,0.32,81.352,12,0,1,0,5,10,10,35,98
2021.999,10,50.0,2.685,500.0,4.044,6.444,0.313,79.838,12,0,1,0,5,11,10,35,98
2020.998,60,30.0,1.184,2172.0,0.93,3.617,0.086,26.221,55,0,2,0,15,4,10,35,98
2019.003,17,58.824,1.854,1535.0,1.315,1.298,0.287,101.957,0,0,0,0,13,8,10,35,98
2014.0,21,57.143,1.783,1641.002,1.227,1.337,0.253,77.956,0,0,0,0,9,7,10,35,98
2009.0,27,33.333,1.419,1000.0,2.009,3.783,0.152,49.801,24,0,2,0,15,15,10,35,98
2008.999,22,50.0,1.335,2000.0,1.004,1.456,0.151,71.664,12,0,5,0,13,15,10,35,98
1993.999,9,66.667,2.329,900.0,2.216,1.941,0.362,123.44,5,0,3,0,5,14,10,35,98
1988.0,19,73.684,1.663,738.999,2.69,0.713,0.213,65.855,6,0,5,0,5,7,10,35,98
1987.0,8,75.0,2.656,400.0,4.968,1.328,0.416,148.012,3,0,4,0,5,14,10,35,98
1980.0,32,59.375,1.272,3004.001,0.659,0.871,0.102,49.498,0,0,0,0,12,4,10,35,98
1979.0,53,50.943,1.171,2476.001,0.799,1.257,0.084,29.771,29,0,4,0,8,3,10,35,98
1977.0,67,32.836,1.159,2774.002,0.713,3.267,0.069,20.036,62,0,2,0,10,3,10,35,98
1971.999,29,37.931,1.274,1606.0,1.228,2.779,0.119,47.715,24,0,3,0,13,13,10,35,98
1963.001,22,40.909,1.454,900.0,2.181,2.423,0.152,56.769,14,0,3,0,9,15,10,35,98
1956.999,54,20.37,1.268,3000.0,0.652,8.415,0.082,19.9,73,0,1,0,11,5,10,35,98
1940.999,33,48.485,1.302,1691.999,1.147,1.79,0.13,42.678,21,0,3,0,7,7,10,35,98
1940.998,20,35.0,1.798,1070.0,1.814,6.166,0.162,41.119,23,0,1,0,7,12,10,35,98
1937.999,25,40.0,1.359,1463.0,1.325,2.446,0.144,54.097,18,0,3,0,15,15,10,35,98
1932.999,26,34.615,1.604,878.999,2.199,5.703,0.14,33.1,32,0,1,0,8,11,10,35,98
1922.998,62,20.968,1.226,3165.001,0.608,8.018,0.073,17.073,85,0,1,0,11,4,10,35,98
1921.999,11,45.455,2.478,700.0,2.746,6.444,0.292,72.651,13,0,1,0,5,9,10,35,98
1914.998,35,42.857,1.246,2228.001,0.86,2.159,0.107,38.421,26,0,3,0,8,7,10,35,98
1914.998,27,40.741,1.29,1507.001,1.271,2.58,0.133,52.525,22,0,3,0,10,13,10,35,98
1913.999,25,40.0,1.346,1500.0,1.276,2.558,0.143,56.619,18,0,3,0,9,13,10,35,98
1909.0,53,22.642,1.273,2879.999,0.663,7.424,0.083,19.579,70,0,1,0,10,5,10,35,98
1906.001,55,41.818,1.222,2732.0,0.698,2.284,0.091,21.611,43,0,2,0,6,2,10,35,98
1896.001,36,44.444,1.218,2185.0,0.868,1.751,0.109,43.715,21,0,4,0,9,7,10,35,98
1888.999,23,47.826,1.291,2000.0,0.944,1.525,0.137,65.963,13,0,5,0,14,15,10,35,98
1887.001,28,42.857,1.248,2309.0,0.817,1.976,0.111,48.81,19,0,4,0,11,9,10,35,98
1886.0,24,58.333,1.343,1808.0,1.043,1.055,0.119,47.966,11,0,5,0,8,9,10,35,98
1878.999,18,55.556,1.569,1328.001,1.415,1.726,0.202,65.623,11,0,3,0,6,12,10,35,98
1874.999,23,60.87,1.535,1815.001,1.033,0.987,0.188,67.697,0,0,0,0,14,6,10,35,98
1868.0,15,53.333,1.849,800.0,2.335,2.543,0.258,74.121,11,0,2,0,6,13,10,35,98
1862.0,73,41.096,1.099,3632.001,0.513,1.722,0.049,19.174,47,0,4,0,12,1,10,35,98
1861.0,26,65.385,1.338,1605.0,1.16,0.866,0.133,46.262,11,0,5,0,6,6,10,35,98
1857.998,16,37.5,1.929,576.0,3.226,6.43,0.212,50.237,20,0,1,0,6,10,10,35,98
1853.0,28,35.714,1.562,828.001,2.238,5.153,0.133,30.798,33,0,1,0,8,10,10,35,98
1838.0,25,44.0,1.484,1704.0,1.079,2.563,0.156,40.282,19,0,2,0,5,5,10,35,98
1837.997,29,41.379,1.278,1500.0,1.225,2.344,0.12,44.931,22,0,3,0,15,14,10,35,98
1832.999,17,58.824,1.679,1500.0,1.222,1.511,0.232,68.033,9,0,3,0,5,8,10,35,98
1832.0,24,54.167,1.436,1402.0,1.307,1.547,0.169,50.428,14,0,3,0,6,8,10,35,98
1827.999,43,30.233,1.223,2530.0,0.723,3.857,0.09,29.08,41,0,2,0,14,7,10,35,98
1823.0,29,27.586,1.493,1373.0,1.328,6.904,0.116,28.808,37,0,1,0,9,12,10,35,98
1802.999,27,51.852,1.258,1741.0,1.036,1.258,0.119,52.434,14,0,5,0,10,10,10,35,98
1795.0,29,41.379,1.272,1500.0,1.197,2.332,0.108,41.332,22,0,3,0,9,9,10,35,98
1788.998,26,42.308,1.248,1663.0,1.076,2.043,0.125,56.36,18,0,4,0,13,13,10,35,98
1787.002,59,42.373,1.118,3694.001,0.484,1.699,0.064,25.478,38,0,4,0,13,3,10,35,98
1778.999,28,64.286,1.354,1991.001,0.894,0.827,0.141,44.549,10,0,5,0,5,4,10,35,98
1777.0,26,34.615,1.538,1078.001,1.648,5.641,0.141,29.107,33,0,1,0,5,3,10,35,98
1775.999,38,21.053,1.348,1900.0,0.935,8.595,0.098,25.586,51,0,1,0,12,12,10,35,98
1774.998,62,22.581,1.214,3045.0,0.583,7.196,0.07,15.901,83,0,1,0,10,4,10,35,98
1766.999,30,43.333,1.384,1706.001,1.036,2.449,0.129,32.622,23,0,2,0,5,4,10,35,98
1766.003,57,54.386,1.156,3138.0,0.563,1.081,0.061,18.941,28,0,4,0,6,1,10,35,98
1761.998,22,36.364,1.678,878.999,2.005,5.452,0.157,37.914,26,0,1,0,8,13,10,35,98
1758.999,40,37.5,1.189,1947.0,0.903,2.458,0.091,33.837,31,0,3,0,10,7,10,35,98
1757.001,13,53.846,2.305,722.996,2.43,1.976,0.309,111.59,0,0,0,0,13,14,10,35,98
1748.0,20,35.0,1.672,1076.0,1.625,6.211,0.162,35.067,26,0,1,0,5,5,10,35,98
1740.998,21,33.333,1.662,1070.0,1.627,6.172,0.142,34.907,25,0,1,0,7,11,10,35,98
1740.001,23,30.435,1.621,1000.0,1.74,6.486,0.142,35.022,28,0,1,0,9,15,10,35,98
1735.0,40,35.0,1.181,2422.0,0.716,2.699,0.089,34.434,32,0,3,0,11,7,10,35,98
1733.0,28,60.714,1.309,2227.999,0.778,1.078,0.136,42.87,14,0,4,0,6,6,10,35,98
1724.001,36,44.444,1.192,2085.0,0.827,1.714,0.102,41.474,22,0,4,0,10,7,10,35,98
1724.0,18,61.111,1.479,1202.999,1.433,1.21,0.175,60.494,9,0,4,0,6,11,10,35,98
1716.001,28,42.857,1.226,2681.001,0.64,1.941,0.099,43.443,19,0,4,0,13,9,10,35,98
1715.999,64,20.312,1.197,2955.001,0.581,8.012,0.068,16.223,87,0,1,0,12,4,10,35,98
1711.999,19,47.368,1.611,1000.0,1.712,2.507,0.193,50.23,14,0,2,0,5,7,10,35,98
1699.997,29,48.276,1.212,1741.0,0.976,1.386,0.12,55.378,16,0,5,0,10,12,10,35,98
1694.001,69,30.435,1.128,2855.003,0.593,3.546,0.057,17.033,66,0,2,0,13,3,10,35,98
1687.998,78,35.897,1.092,3318.002,0.509,2.38,0.042,14.706,61,0,3,0,11,1,10,35,98
1687.0,8,75.0,2.125,504.0,3.347,1.062,0.325,125.449,3,0,5,0,5,14,10,35,98
1686.997,12,41.667,2.205,576.0,2.929,6.174,0.25,62.052,14,0,1,0,6,13,10,35,98
1685.998,45,31.111,1.196,2122.0,0.795,3.674,0.088,27.634,43,0,2,0,12,6,10,35,98
1684.0,70,30.0,1.126,2855.003,0.59,3.591,0.056,16.752,67,0,2,0,14,3,10,35,98
1683.999,35,34.286,1.255,1600.0,1.052,3.452,0.113,36.069,33,0,2,0,15,12,10,35,98
1675.999,38,21.053,1.322,1900.0,0.882,8.595,0.094,24.235,52,0,1,0,12,11,10,35,98
1673.0,14,57.143,2.075,1499.0,1.116,1.556,0.336,105.088,0,0,0,0,15,12,10,35,98
1671.999,30,36.667,1.223,1606.0,1.041,2.779,0.103,41.006,25,0,3,0,14,13,10,35,98
1656.998,25,44.0,1.27,1257.001,1.318,1.848,0.132,56.609,15,0,4,0,9,13,10,35,98
1651.0,23,56.522,1.469,1815.001,0.91,1.13,0.171,61.64,0,0,0,0,13,6,10,35,98
1650.999,8,50.0,3.064,400.0,4.127,6.127,0.356,93.728,8,0,1,0,5,13,10,35,98
1650.999,27,48.148,1.22,2058.0,0.802,1.408,0.109,50.334,15,0,5,0,11,10,10,35,98
1644.998,26,46.154,1.242,1663.0,0.989,1.759,0.124,52.253,17,0,4,0,15,14,10,35,98
1640.998,21,33.333,1.601,870.0,1.886,6.175,0.134,32.548,26,0,1,0,7,10,10,35,98
1638.0,43,30.233,1.2,2530.0,0.647,3.784,0.084,26.756,41,0,2,0,13,7,10,35,98
1628.999,41,41.463,1.181,2861.001,0.569,2.084,0.089,31.223,30,0,3,0,8,5,10,35,98
1623.0,30,26.667,1.416,1373.0,1.182,6.904,0.103,24.972,39,0,1,0,9,11,10,35,98
1621.999,13,38.462,2.014,700.0,2.317,6.444,0.224,52.599,16,0,1,0,5,8,10,35,98
1618.002,11,63.636,2.528,1042.999,1.551,1.444,0.373,115.646,0,0,0,0,15,15,10,35,98
1600.998,17,35.294,1.8,839.0,1.908,6.002,0.167,42.75,20,0,1,0,7,13,10,35,98
1600.0,83,30.12,1.105,3223.002,0.496,3.36,0.056,16.402,76,0,2,0,11,2,10,35,98
1596.999,29,48.276,1.2,2158.001,0.74,1.371,0.111,49.539,16,0,5,0,15,8,10,35,98
1591.0,24,62.5,1.362,2682.999,0.593,0.999,0.145,43.788,11,0,4,0,5,5,10,35,98
1589.002,13,53.846,2.375,645.0,2.464,2.035,0.296,102.128,0,0,0,0,14,14,10,35,98
1585.001,44,38.636,1.137,4771.001,0.332,1.939,0.076,32.324,29,0,4,0,14,5,10,35,98
1582.999,26,42.308,1.22,1407.001,1.125,1.996,0.121,54.596,18,0,4,0,11,13,10,35,98
1580.0,29,62.069,1.304,2885.0,0.548,0.942,0.131,38.66,13,0,4,0,5,4,10,35,98
1577.001,60,41.667,1.101,3694.001,0.427,1.718,0.057,22.871,39,0,4,0,14,3,10,35,98
1571.997,13,61.538,2.066,1013.0,1.552,1.292,0.291,111.352,0,0,0,0,10,13,10,35,98
1557.998,17,35.294,1.677,628.001,2.481,6.43,0.167,38.027,23,0,1,0,6,9,10,35,98
1553.0,29,34.483,1.431,1028.001,1.511,5.153,0.111,24.924,36,0,1,0,8,9,10,35,98
1543.001,31,29.032,1.386,1152.998,1.338,6.159,0.097,23.2,40,0,1,0,9,10,10,35,98
1537.997,30,40.0,1.223,1500.0,1.025,2.344,0.106,39.233,23,0,3,0,15,13,10,35,98
1531.999,31,58.065,1.218,3266.003,0.469,0.88,0.092,43.628,0,0,0,0,11,4,10,35,98
1529.0,19,68.421,1.478,1466.999,1.042,0.909,0.18,52.297,8,0,4,0,5,7,10,35,98
1520.999,43,23.256,1.272,1879.999,0.809,7.121,0.085,20.264,56,0,1,0,10,8,10,35,98
1519.0,23,65.217,1.338,2160.0,0.703,0.803,0.133,43.868,9,0,5,0,5,5,10,35,98
1510.0,33,36.364,1.186,1981.001,0.762,2.669,0.081,31.764,27,0,3,0,13,9,10,35,98
1506.001,29,41.379,1.188,2681.001,0.562,1.98,0.086,37.654,20,0,4,0,14,9,10,35,98
1504.999,34,20.588,1.327,1900.0,0.792,8.721,0.1,26.271,46,0,1,0,12,13,10,35,98
1493.996,62,24.194,1.196,2326.001,0.642,6.059,0.058,11.69,75,0,1,0,7,2,10,35,98
1492.999,33,39.394,1.199,1500.0,0.995,2.306,0.1,37.421,25,0,3,0,15,12,10,35,98
1492.002,44,43.182,1.213,2110.0,0.707,2.235,0.081,19.394,35,0,2,0,6,3,10,35,98
1485.999,48,52.083,1.125,3031.001,0.49,1.125,0.053,20.675,23,0,5,0,9,4,10,35,98
1484.0,24,54.167,1.247,1741.0,0.852,1.151,0.088,37.261,12,0,5,0,9,10,10,35,98
1480.002,25,52.0,1.256,3224.0,0.459,1.159,0.115,57.736,0,0,0,0,11,5,10,35,98
1475.999,40,20.0,1.273,1800.0,0.82,8.595,0.085,21.645,54,0,1,0,12,10,10,35,98
1471.999,30,30.0,1.237,1800.0,0.818,4.262,0.101,34.678,31,0,2,0,13,13,10,35,98
1470.001,59,42.373,1.098,3130.002,0.47,1.669,0.06,23.432,37,0,4,0,11,3,10,35,98
1468.999,44,20.455,1.245,2100.0,0.7,8.299,0.079,19.378,60,0,1,0,11,8,10,35,98
1465.0,20,55.0,1.376,1402.0,1.045,1.626,0.142,43.896,13,0,3,0,6,9,10,35,98
1463.0,45,35.556,1.139,3471.001,0.421,2.492,0.076,28.051,35,0,3,0,15,5,10,35,98
1460.999,22,45.455,1.43,1304.0,1.12,2.43,0.144,35.781,17,0,2,0,5,6,10,35,98
1460.999,34,50.0,1.159,2270.001,0.644,1.296,0.084,36.171,18,0,5,0,10,7,10,35,98
1458.997,25,44.0,1.195,1706.0,0.855,1.629,0.109,53.274,15,0,5,0,13,13,10,35,98
1448.997,27,44.444,1.181,2500.0,0.58,1.575,0.109,52.751,16,0,5,0,12,14,10,35,98
1413.0,34,29.412,1.221,1901.0,0.743,3.906,0.092,29.213,32,0,2,0,15,10,10,35,98
1410.001,61,54.098,1.096,3326.0,0.424,0.997,0.037,13.927,29,0,5,0,8,1,10,35,98
1399.999,34,35.294,1.167,1981.001,0.707,2.722,0.074,29.095,28,0,3,0,14,9,10,35,98
1395.002,44,38.636,1.12,4771.001,0.292,1.911,0.07,29.597,29,0,4,0,13,5,10,35,98
1388.0,39,35.897,1.152,2047.0,0.678,2.551,0.077,28.823,30,0,3,0,9,7,10,35,98
1385.999,42,21.429,1.243,1790.0,0.774,7.873,0.081,20.14,57,0,1,0,12,9,10,35,98
1380.999,40,42.5,1.12,2563.002,0.539,1.581,0.07,32.51,23,0,5,0,14,5,10,35,98
1375.998,35,22.857,1.306,2033.0,0.677,7.345,0.096,23.525,45,0,1,0,15,14,10,35,98
1374.0,38,57.895,1.191,3535.999,0.389,0.974,0.088,25.99,18,0,4,0,5,2,10,35,98
1368.999,29,44.828,1.161,2500.0,0.548,1.518,0.093,43.549,17,0,5,0,13,11,10,35,98
1366.998,27,29.63,1.38,1276.0,1.071,6.209,0.105,21.798,36,0,1,0,6,6,10,35,98
1351.999,26,26.923,1.398,1200.0,1.127,6.789,0.103,25.399,34,0,1,0,9,13,10,35,98
1345.999,36,66.667,1.194,2750.001,0.489,0.597,0.067,27.721,0,0,0,0,8,2,10,35,98
1345.999,27,40.741,1.198,2491.0,0.54,1.851,0.095,40.379,17,0,4,0,15,10,10,35,98
1343.002,48,62.5,1.138,2343.0,0.573,0.759,0.059,18.826,19,0,5,0,6,2,10,35,98
1340.998,23,30.435,1.442,970.0,1.382,6.182,0.107,25.103,29,0,1,0,7,9,10,35,98
1339.999,78,35.897,1.073,3436.002,0.39,2.338,0.035,12.068,61,0,3,0,10,1,10,35,98
1335.998,51,27.451,1.215,2200.001,0.607,5.383,0.067,12.508,62,0,1,0,6,2,10,35,98
1332.998,13,46.154,1.89,964.999,1.381,2.206,0.247,90.044,0,0,0,0,13,13,10,35,98
1331.999,13,61.538,1.792,1069.0,1.246,1.12,0.245,93.085,0,0,0,0,9,13,10,35,98
1322.999,9,55.556,1.945,800.0,1.654,2.723,0.26,75.537,7,0,2,0,5,13,10,35,98
1320.0,13,69.231,1.528,543.999,2.426,0.849,0.182,67.799,5,0,5,0,6,13,10,35,98
1312.001,14,57.143,1.588,1689.999,0.776,1.191,0.207,75.243,0,0,0,0,15,10,10,35,98
1307.999,27,48.148,1.184,1741.0,0.751,1.366,0.088,38.7,14,0,5,0,9,12,10,35,98
1299.998,38,18.421,1.245,2233.0,0.582,9.429,0.072,18.559,53,0,1,0,14,12,10,35,98
1274.003,64,35.938,1.083,2971.001,0.429,2.402,0.044,15.603,51,0,3,0,12,3,10,35,98
1274.0,56,19.643,1.168,2890.0,0.441,8.067,0.061,14.38,76,0,1,0,12,5,10,35,98
1271.999,31,29.032,1.199,1800.0,0.707,4.262,0.09,30.681,32,0,2,0,14,13,10,35,98
1270.001,85,28.235,1.079,3146.001,0.404,3.598,0.047,13.748,80,0,2,0,12,2,10,35,98
1266.002,37,40.541,1.127,3112.0,0.407,1.878,0.078,32.813,25,0,4,0,12,7,10,35,98
1255.999,43,55.814,1.154,2854.0,0.44,1.009,0.068,19.722,20,0,4,0,5,1,10,35,98
1252.998,23,47.826,1.204,1869.0,0.67,1.423,0.112,51.395,12,0,5,0,9,13,10,35,98
1248.0,94,27.66,1.072,3172.002,0.393,3.586,0.029,8.368,87,0,2,0,13,1,10,35,98
1247.998,37,43.243,1.134,2274.001,0.549,1.702,0.077,30.781,23,0,4,0,10,6,10,35,98
1243.001,33,27.273,1.289,1252.998,0.992,6.159,0.08,18.442,43,0,1,0,9,9,10,35,98
1241.998,37,43.243,1.138,2344.0,0.53,1.707,0.077,29.946,22,0,4,0,9,6,10,35,98
1239.998,65,18.462,1.139,3088.001,0.402,8.45,0.051,12.119,89,0,1,0,14,4,10,35,98
1239.0,20,55.0,1.471,1928.001,0.643,1.203,0.189,57.162,0,0,0,0,10,7,10,35,98
1234.997,31,54.839,1.172,3573.003,0.346,0.965,0.079,36.558,0,0,0,0,10,4,10,35,98
1229.002,59,44.068,1.084,2962.001,0.415,1.543,0.054,20.599,36,0,4,0,10,3,10,35,98
1223.999,25,48.0,1.22,3362.002,0.364,1.321,0.105,49.52,0,0,0,0,10,5,10,35,98
1221.999,15,33.333,1.611,700.0,1.746,6.444,0.151,33.05,20,0,1,0,5,7,10,35,98
1221.001,15,53.333,1.473,2166.999,0.563,1.289,0.218,84.199,0,0,0,0,15,8,10,35,98
1216.002,31,58.065,1.203,3411.999,0.356,1.002,0.096,29.564,15,0,4,0,6,5,10,35,98
1214.998,26,42.308,1.169,1407.001,0.864,1.912,0.104,45.387,18,0,4,0,10,13,10,35,98
1209.999,38,18.421,1.233,2233.0,0.542,9.157,0.07,17.834,52,0,1,0,13,12,10,35,98
1183.997,24,45.833,1.169,2241.0,0.528,1.488,0.11,52.893,14,0,5,0,11,13,10,35,98
1182.001,71,42.254,1.07,3565.001,0.332,1.569,0.034,12.665,41,0,4,0,9,1,10,35,98
1171.0,18,33.333,1.488,976.0,1.2,5.952,0.124,25.516,24,0,1,0,5,6,10,35,98
1166.999,32,40.625,1.224,1906.001,0.612,2.449,0.082,20.233,26,0,2,0,5,3,10,35,98
1164.999,13,53.846,1.789,774.999,1.503,1.534,0.229,80.734,0,0,0,0,14,13,10,35,98
1157.998,20,30.0,1.429,876.0,1.322,6.43,0.118,25.381,27,0,1,0,6,8,10,35,98
1157.0,40,42.5,1.1,2597.002,0.446,1.554,0.063,28.959,23,0,5,0,13,5,10,35,98
1149.998,64,18.75,1.131,3088.001,0.372,8.292,0.05,11.65,88,0,1,0,13,4,10,35,98
1145.999,31,35.484,1.159,2191.0,0.523,2.529,0.074,27.49,24,0,3,0,15,10,10,35,98
1142.999,30,53.333,1.181,2127.999,0.537,1.551,0.088,25.62,21,0,3,0,6,6,10,35,98
1141.0,36,58.333,1.157,2874.0,0.397,0.882,0.071,22.867,14,0,5,0,5,2,10,35,98
1128.0,42,33.333,1.111,3120.0,0.362,2.697,0.059,22.66,34,0,3,0,14,7,10,35,98
1119.999,27,48.148,1.149,1741.0,0.643,1.326,0.082,36.485,15,0,5,0,10,9,10,35,98
1099.998,40,17.5,1.2,2133.0,0.516,9.429,0.064,16.299,55,0,1,0,14,10,10,35,98
1099.998,39,17.949,1.2,2233.0,0.493,9.429,0.063,15.957,55,0,1,0,14,11,10,35,98
1086.999,31,41.935,1.129,2063.0,0.527,1.824,0.078,32.53,21,0,4,0,15,11,10,35,98
1083.999,29,27.586,1.278,1676.0,0.647,6.23,0.079,15.917,39,0,1,0,6,5,10,35,98
1081.001,36,38.889,1.111,3096.0,0.349,1.983,0.073,30.736,24,0,4,0,11,7,10,35,98
1076.001,34,47.059,1.111,2241.0,0.48,1.389,0.069,30.736,19,0,5,0,11,7,10,35,98
1068.0,15,53.333,1.356,1200.0,0.89,1.695,0.146,47.143,10,0,3,0,6,13,10,35,98
1067.997,45,28.889,1.121,2930.0,0.365,3.795,0.059,18.317,44,0,2,0,14,6,10,35,98
1062.0,21,61.905,1.266,1882.999,0.564,0.973,0.11,32.448,10,0,4,0,5,6,10,35,98
1060.0,34,61.765,1.141,3004.001,0.353,0.707,0.06,26.982,0,0,0,0,12,3,10,35,98
1058.998,30,43.333,1.118,2500.0,0.424,1.548,0.076,35.786,18,0,5,0,14,11,10,35,98
1056.002,26,53.846,1.175,2812.999,0.375,1.007,0.084,41.94,0,0,0,0,12,5,10,35,98
1055.0,40,45.0,1.128,3174.0,0.332,1.755,0.072,22.93,27,0,3,0,7,5,10,35,98
1050.001,15,60.0,1.473,1466.0,0.716,0.982,0.183,61.822,0,0,0,0,13,9,10,35,98
1048.999,83,30.12,1.069,3406.002,0.308,3.25,0.043,12.357,76,0,2,0,10,2,10,35,98
1037.999,96,27.083,1.058,3228.001,0.322,3.623,0.025,7.028,89,0,2,0,14,1,10,35,98
1034.001,43,41.86,1.1,3992.0,0.259,1.65,0.064,25.165,25,0,4,0,9,5,10,35,98
1022.999,65,44.615,1.077,2608.001,0.392,1.671,0.029,8.457,44,0,3,0,7,2,10,35,98
1012.998,36,27.778,1.216,1778.001,0.57,5.713,0.066,12.782,47,0,1,0,6,4,10,35,98
1009.999,39,17.949,1.187,2233.0,0.452,9.157,0.06,15.213,54,0,1,0,13,11,10,35,98
1003.999,30,43.333,1.112,2500.0,0.402,1.539,0.081,39.075,18,0,5,0,12,12,10,35,98
995.0,75,36.0,1.058,3561.001,0.279,2.273,0.025,8.53,56,0,3,0,9,1,10,35,98
993.998,57,26.316,1.146,2242.001,0.443,5.196,0.051,9.186,68,0,1,0,6,1,10,35,98
993.001,35,62.857,1.122,3621.999,0.274,0.663,0.045,21.885,0,0,0,0,12,1,10,35,98
984.0,45,35.556,1.095,3528.0,0.279,2.396,0.058,21.063,34,0,3,0,9,5,10,35,98
984.0,72,41.667,1.054,4098.001,0.24,1.616,0.032,12.029,45,0,4,0,10,1,10,35,98
977.001,69,40.58,1.054,3783.001,0.258,1.694,0.04,15.573,45,0,4,0,12,2,10,35,98
953.0,33,30.303,1.227,1131.998,0.842,5.153,0.065,13.916,42,0,1,0,8,8,10,35,98
944.999,81,34.568,1.049,4202.001,0.225,2.398,0.024,8.238,64,0,3,0,13,1,10,35,98
943.999,10,60.0,1.524,1200.0,0.787,1.524,0.181,56.51,6,0,3,0,5,13,10,35,98
938.0,42,33.333,1.092,3120.0,0.301,2.652,0.053,20.046,34,0,3,0,13,7,10,35,98
937.0,72,40.278,1.05,4186.002,0.224,1.702,0.029,11.33,46,0,4,0,11,1,10,35,98
937.0,8,75.0,1.625,500.0,1.874,0.812,0.198,70.874,3,0,5,0,5,13,10,35,98
931.0,30,20.0,1.239,1933.0,0.482,8.052,0.082,19.571,39,0,1,0,15,15,10,35,98
926.0,72,40.278,1.049,4191.001,0.221,1.701,0.027,10.659,47,0,4,0,13,1,10,35,98
924.998,72,23.611,1.106,2421.999,0.382,5.662,0.037,7.278,87,0,1,0,8,2,10,35,98
909.999,40,17.5,1.165,2133.0,0.427,9.157,0.057,14.268,55,0,1,0,13,10,10,35,98
909.998,43,18.605,1.154,2023.0,0.45,8.512,0.056,13.895,59,0,1,0,14,9,10,35,98
903.999,33,48.485,1.103,2270.001,0.398,1.309,0.048,19.872,17,0,5,0,9,7,10,35,98
893.001,62,32.258,1.078,2563.998,0.348,3.073,0.042,11.599,57,0,2,0,9,3,10,35,98
890.002,12,50.0,1.57,1231.997,0.722,1.57,0.201,75.574,0,0,0,0,15,14,10,35,98
885.001,38,57.895,1.116,3093.999,0.286,0.964,0.062,18.854,19,0,4,0,6,4,10,35,98
880.997,26,42.308,1.11,2500.0,0.352,1.615,0.078,37.813,16,0,5,0,13,14,10,35,98
877.998,45,28.889,1.1,2930.0,0.3,3.722,0.052,16.116,44,0,2,0,13,6,10,35,98
871.996,69,23.188,1.102,2448.001,0.356,5.856,0.035,6.772,84,0,1,0,7,1,10,35,98
849.999,27,44.444,1.106,2058.0,0.413,1.475,0.069,31.849,16,0,5,0,11,9,10,35,98
838.998,34,17.647,1.175,2133.0,0.393,9.398,0.063,16.192,48,0,1,0,13,13,10,35,98
837.0,9,66.667,1.523,800.0,1.046,1.015,0.18,59.071,4,0,4,0,5,13,10,35,98
831.998,84,34.524,1.042,3905.001,0.213,2.371,0.022,7.464,66,0,3,0,14,1,10,35,98
829.002,57,43.86,1.061,2828.999,0.293,1.486,0.042,15.619,33,0,4,0,9,3,10,35,98
819.999,42,19.048,1.141,2023.0,0.405,8.275,0.054,13.21,58,0,1,0,13,9,10,35,98
816.998,86,17.442,1.074,3344.002,0.244,7.945,0.036,7.949,111,0,1,0,11,2,10,35,98
815.997,24,45.833,1.117,2241.0,0.364,1.421,0.091,42.21,14,0,5,0,10,13,10,35,98
812.003,20,50.0,1.278,1827.998,0.444,1.278,0.151,45.085,0,0,0,0,11,7,10,35,98
809.998,30,43.333,1.101,2063.0,0.393,1.694,0.071,29.65,20,0,4,0,15,12,10,35,98
809.0,34,61.765,1.112,3398.002,0.238,0.688,0.056,24.241,0,0,0,0,11,3,10,35,98
808.0,5,80.0,4.724,217.0,3.724,1.181,0.538,114.032,0,0,0,0,4,7,10,35,98
797.999,56,17.857,1.102,3023.0,0.264,8.598,0.041,9.669,78,0,1,0,14,5,10,35,98
785.001,61,44.262,1.063,3057.0,0.257,1.654,0.019,5.539,41,0,3,0,6,1,10,35,98
784.002,52,55.769,1.075,3796.999,0.206,0.964,0.04,11.706,26,0,4,0,6,2,10,35,98
778.0,2,100.0,-inf,0.0,inf,nan,1.438,284.245,0,0,0,0,4,8,10,35,98
778.0,2,100.0,-inf,0.0,inf,nan,1.438,284.245,0,0,0,0,4,9,10,35,98
778.0,2,100.0,-inf,0.0,inf,nan,1.438,284.245,0,0,4,0,4,8,10,35,98
778.0,2,100.0,-inf,0.0,inf,nan,1.438,284.245,0,0,4,0,4,9,10,35,98
778.0,2,100.0,-inf,0.0,inf,nan,1.438,284.245,0,0,5,0,4,8,10,35,98
778.0,2,100.0,-inf,0.0,inf,nan,1.438,284.245,0,0,5,0,4,9,10,35,98
775.999,26,38.462,1.102,1663.0,0.467,2.094,0.074,33.47,19,0,4,0,14,13,10,35,98
772.001,65,47.692,1.044,4355.0,0.177,1.212,0.023,9.622,35,0,5,0,11,1,10,35,98
765.999,38,42.105,1.077,2639.001,0.29,1.682,0.055,22.32,25,0,4,0,12,6,10,35,98
764.001,74,35.135,1.042,3334.0,0.229,2.406,0.031,10.915,60,0,3,0,12,2,10,35,98
761.001,54,44.444,1.068,2287.999,0.333,1.691,0.031,9.518,37,0,3,0,7,3,10,35,98
760.998,27,40.741,1.09,2500.0,0.304,1.684,0.07,34.135,17,0,5,0,14,14,10,35,98
751.999,2,100.0,-inf,0.0,inf,nan,1.296,274.34,0,0,0,0,4,10,10,35,98
751.999,2,100.0,-inf,0.0,inf,nan,1.296,274.34,0,0,0,0,4,11,10,35,98
751.999,2,100.0,-inf,0.0,inf,nan,1.296,274.34,0,0,5,0,4,10,10,35,98
751.999,2,100.0,-inf,0.0,inf,nan,1.296,274.34,0,0,5,0,4,11,10,35,98
749.999,63,47.619,1.052,3246.001,0.231,1.262,0.028,9.717,36,0,4,0,8,2,10,35,98
740.998,27,25.926,1.204,1370.0,0.541,6.192,0.054,11.766,35,0,1,0,7,8,10,35,98
738.998,35,17.143,1.151,2133.0,0.346,9.398,0.058,14.723,49,0,1,0,14,13,10,35,98
738.001,25,60.0,1.142,2227.999,0.331,0.99,0.072,22.35,13,0,4,0,6,7,10,35,98
732.997,26,42.308,1.092,3000.0,0.244,1.588,0.077,37.431,16,0,5,0,12,13,10,35,98
688.0,31,54.839,1.087,3063.0,0.225,0.895,0.037,18.785,0,0,0,0,13,4,10,35,98
686.999,21,47.619,1.114,2247.001,0.306,1.337,0.079,35.13,12,0,5,0,15,15,10,35,98
686.001,41,63.415,1.081,2308.001,0.297,0.707,0.04,12.763,17,0,5,0,6,3,10,35,98
683.001,41,39.024,1.063,4371.001,0.156,1.794,0.049,19.773,27,0,4,0,15,5,10,35,98
672.998,37,40.541,1.07,2849.001,0.236,1.783,0.055,21.86,24,0,4,0,11,6,10,35,98
664.001,35,60.0,1.082,4411.001,0.151,0.722,0.037,17.591,0,0,0,0,11,1,10,35,98
662.001,84,27.381,1.041,3572.002,0.185,3.622,0.031,9.103,80,0,2,0,13,2,10,35,98
657.998,23,26.087,1.206,1176.0,0.56,6.43,0.065,13.178,32,0,1,0,6,7,10,35,98
643.001,37,24.324,1.131,1552.998,0.414,6.159,0.042,9.203,49,0,1,0,9,8,10,35,98
632.999,20,50.0,1.162,1500.0,0.422,1.511,0.069,19.899,13,0,3,0,5,7,10,35,98
632.0,25,60.0,1.121,2747.002,0.23,0.747,0.069,29.439,0,0,0,0,8,5,10,35,98
620.999,38,47.368,1.063,2323.001,0.267,1.24,0.034,13.778,19,0,5,0,9,5,10,35,98
607.999,56,17.857,1.078,3023.0,0.201,8.408,0.035,8.238,78,0,1,0,13,5,10,35,98
590.0,21,61.905,1.131,1660.0,0.355,0.783,0.052,17.085,9,0,5,0,5,6,10,35,98
589.999,31,58.065,1.08,3552.002,0.166,0.78,0.041,18.501,0,0,0,0,9,4,10,35,98
587.0,28,42.857,1.069,2500.0,0.235,1.514,0.051,23.872,17,0,5,0,12,10,10,35,98
586.0,1,100.0,-inf,0.0,inf,nan,nan,423.99,0,0,0,0,4,12,10,35,98
586.0,1,100.0,-inf,0.0,inf,nan,nan,423.99,0,0,0,0,4,13,10,35,98
586.0,1,100.0,-inf,0.0,inf,nan,nan,423.99,0,0,0,0,4,14,10,35,98
586.0,1,100.0,-inf,0.0,inf,nan,nan,423.99,0,0,0,0,4,15,10,35,98
586.0,1,100.0,-inf,0.0,inf,nan,nan,423.99,0,0,1,0,4,12,10,35,98
586.0,1,100.0,-inf,0.0,inf,nan,nan,423.99,0,0,1,0,4,13,10,35,98
586.0,1,100.0,-inf,0.0,inf,nan,nan,423.99,0,0,1,0,4,14,10,35,98
586.0,1,100.0,-inf,0.0,inf,nan,nan,423.99,0,0,1,0,4,15,10,35,98
586.0,1,100.0,-inf,0.0,inf,nan,nan,423.99,0,0,2,0,4,12,10,35,98
586.0,1,100.0,-inf,0.0,inf,nan,nan,423.99,0,0,2,0,4,13,10,35,98
586.0,1,100.0,-inf,0.0,inf,nan,nan,423.99,0,0,2,0,4,14,10,35,98
586.0,1,100.0,-inf,0.0,inf,nan,nan,423.99,0,0,2,0,4,15,10,35,98
586.0,1,100.0,-inf,0.0,inf,nan,nan,423.99,0,0,3,0,4,12,10,35,98
586.0,1,100.0,-inf,0.0,inf,nan,nan,423.99,0,0,3,0,4,13,10,35,98
586.0,1,100.0,-inf,0.0,inf,nan,nan,423.99,0,0,3,0,4,14,10,35,98
586.0,1,100.0,-inf,0.0,inf,nan,nan,423.99,0,0,3,0,4,15,10,35,98
586.0,1,100.0,-inf,0.0,inf,nan,nan,423.99,0,0,4,0,4,12,10,35,98
586.0,1,100.0,-inf,0.0,inf,nan,nan,423.99,0,0,4,0,4,13,10,35,98
586.0,1,100.0,-inf,0.0,inf,nan,nan,423.99,0,0,4,0,4,14,10,35,98
586.0,1,100.0,-inf,0.0,inf,nan,nan,423.99,0,0,4,0,4,15,10,35,98
586.0,1,100.0,-inf,0.0,inf,nan,nan,423.99,0,0,5,0,4,12,10,35,98
586.0,1,100.0,-inf,0.0,inf,nan,nan,423.99,0,0,5,0,4,13,10,35,98
586.0,1,100.0,-inf,0.0,inf,nan,nan,423.99,0,0,5,0,4,14,10,35,98
586.0,1,100.0,-inf,0.0,inf,nan,nan,423.99,0,0,5,0,4,15,10,35,98
575.999,39,25.641,1.111,1634.998,0.352,5.776,0.035,7.329,52,0,1,0,8,6,10,35,98
575.999,45,17.778,1.091,2100.0,0.274,8.595,0.043,10.349,63,0,1,0,12,8,10,35,98
571.997,42,35.714,1.056,2547.0,0.225,2.463,0.042,15.073,34,0,3,0,10,6,10,35,98
567.0,34,58.824,1.077,3573.003,0.159,0.754,0.041,17.433,0,0,0,0,10,3,10,35,98
561.001,14,57.143,1.175,1202.999,0.466,1.175,0.086,29.949,8,0,4,0,6,13,10,35,98
555.999,43,30.233,1.069,2330.0,0.239,3.291,0.046,13.583,40,0,2,0,15,7,10,35,98
535.999,49,44.898,1.038,3261.0,0.164,1.369,0.035,14.846,28,0,5,0,15,4,10,35,98
525.0,5,80.0,2.05,500.0,1.05,0.512,0.262,74.054,1,0,5,0,4,7,10,35,98
509.999,88,17.045,1.045,3134.002,0.163,7.94,0.031,6.808,114,0,1,0,12,2,10,35,98
508.998,78,21.795,1.052,2228.0,0.228,6.064,0.014,2.762,98,0,1,0,8,1,10,35,98
506.001,74,39.189,1.026,4191.001,0.121,1.733,0.018,6.952,49,0,4,0,14,1,10,35,98
495.999,50,26.0,1.075,1999.999,0.248,5.458,0.028,5.545,66,0,1,0,8,4,10,35,98
486.0,1,100.0,5.86,100.0,4.86,5.86,0.494,174.44,1,0,1,0,4,10,10,35,98
486.0,1,100.0,5.86,100.0,4.86,5.86,0.494,174.44,1,0,1,0,4,11,10,35,98
468.0,58,53.448,1.032,3452.002,0.136,0.966,0.015,5.489,29,0,5,0,8,2,10,35,98
464.001,21,47.619,1.113,2856.999,0.162,1.224,0.086,33.202,0,0,0,0,15,6,10,35,98
454.0,55,40.0,1.036,3600.0,0.126,1.978,0.02,6.439,42,0,3,0,8,3,10,35,98
452.0,86,26.744,1.028,3772.002,0.12,3.663,0.025,7.44,82,0,2,0,14,2,10,35,98
448.001,37,37.838,1.043,4120.0,0.109,1.937,0.037,15.604,26,0,4,0,14,7,10,35,98
445.0,50,54.0,1.036,3476.001,0.128,0.959,0.014,5.233,25,0,5,0,8,3,10,35,98
441.998,26,42.308,1.061,1663.0,0.266,1.737,0.062,25.681,18,0,4,0,15,13,10,35,98
435.999,29,41.379,1.048,2500.0,0.174,1.573,0.052,25.175,18,0,5,0,13,12,10,35,98
432.999,32,56.25,1.068,3285.0,0.132,0.949,0.046,13.614,16,0,4,0,5,3,10,35,98
430.0,42,26.19,1.078,2034.998,0.211,5.391,0.027,5.501,55,0,1,0,8,5,10,35,98
402.0,15,53.333,1.133,1466.0,0.274,0.992,0.085,32.749,0,0,0,0,14,9,10,35,98
399.0,1,100.0,-inf,0.0,inf,nan,nan,318.51,0,0,0,0,3,1,10,35,98
399.0,1,100.0,-inf,0.0,inf,nan,nan,318.51,0,0,0,0,3,2,10,35,98
399.0,1,100.0,-inf,0.0,inf,nan,nan,318.51,0,0,0,0,3,3,10,35,98
399.0,1,100.0,-inf,0.0,inf,nan,nan,318.51,0,0,0,0,3,4,10,35,98
399.0,1,100.0,-inf,0.0,inf,nan,nan,318.51,0,0,1,0,3,1,10,35,98
399.0,1,100.0,-inf,0.0,inf,nan,nan,318.51,0,0,1,0,3,2,10,35,98
399.0,1,100.0,-inf,0.0,inf,nan,nan,318.51,0,0,1,0,3,3,10,35,98
399.0,1,100.0,-inf,0.0,inf,nan,nan,318.51,0,0,1,0,3,4,10,35,98
399.0,1,100.0,-inf,0.0,inf,nan,nan,318.51,0,0,2,0,3,1,10,35,98
399.0,1,100.0,-inf,0.0,inf,nan,nan,318.51,0,0,2,0,3,2,10,35,98
399.0,1,100.0,-inf,0.0,inf,nan,nan,318.51,0,0,2,0,3,3,10,35,98
399.0,1,100.0,-inf,0.0,inf,nan,nan,318.51,0,0,2,0,3,4,10,35,98
399.0,1,100.0,-inf,0.0,inf,nan,nan,318.51,0,0,3,0,3,1,10,35,98
399.0,1,100.0,-inf,0.0,inf,nan,nan,318.51,0,0,3,0,3,2,10,35,98
399.0,1,100.0,-inf,0.0,inf,nan,nan,318.51,0,0,3,0,3,3,10,35,98
399.0,1,100.0,-inf,0.0,inf,nan,nan,318.51,0,0,3,0,3,4,10,35,98
399.0,1,100.0,-inf,0.0,inf,nan,nan,318.51,0,0,4,0,3,1,10,35,98
399.0,1,100.0,-inf,0.0,inf,nan,nan,318.51,0,0,4,0,3,2,10,35,98
399.0,1,100.0,-inf,0.0,inf,nan,nan,318.51,0,0,4,0,3,3,10,35,98
399.0,1,100.0,-inf,0.0,inf,nan,nan,318.51,0,0,4,0,3,4,10,35,98
399.0,1,100.0,-inf,0.0,inf,nan,nan,318.51,0,0,5,0,3,1,10,35,98
399.0,1,100.0,-inf,0.0,inf,nan,nan,318.51,0,0,5,0,3,2,10,35,98
399.0,1,100.0,-inf,0.0,inf,nan,nan,318.51,0,0,5,0,3,3,10,35,98
399.0,1,100.0,-inf,0.0,inf,nan,nan,318.51,0,0,5,0,3,4,10,35,98
388.003,21,52.381,1.122,1871.998,0.207,1.02,0.087,26.214,0,0,0,0,12,7,10,35,98
386.0,2,50.0,2.93,200.0,1.93,5.86,0.316,91.207,2,0,1,0,4,8,10,35,98
386.0,2,50.0,2.93,200.0,1.93,5.86,0.316,91.207,2,0,1,0,4,9,10,35,98
386.0,2,50.0,2.93,200.0,1.93,2.93,0.337,136.735,1,0,2,0,4,8,10,35,98
386.0,2,50.0,2.93,200.0,1.93,2.93,0.337,136.735,1,0,2,0,4,9,10,35,98
386.0,2,50.0,2.93,200.0,1.93,2.93,0.337,136.88,1,0,2,0,4,10,10,35,98
386.0,2,50.0,2.93,200.0,1.93,2.93,0.337,136.88,1,0,2,0,4,11,10,35,98
383.997,36,47.222,1.038,2791.002,0.138,1.282,0.034,14.248,20,0,5,0,10,6,10,35,98
372.998,43,34.884,1.035,2812.0,0.133,2.483,0.034,12.465,36,0,3,0,12,6,10,35,98
369.001,68,39.706,1.021,4342.001,0.085,1.701,0.023,9.049,45,0,4,0,13,2,10,35,98
363.997,32,21.875,1.079,1776.0,0.205,7.088,0.021,4.466,45,0,1,0,7,6,10,35,98
356.001,25,48.0,1.051,1741.0,0.204,1.226,0.019,8.012,14,0,5,0,9,9,10,35,98
345.998,25,40.0,1.043,1706.0,0.203,1.669,0.051,25.258,16,0,5,0,14,13,10,35,98
332.001,67,46.269,1.017,5114.0,0.065,1.247,0.011,4.783,38,0,5,0,12,1,10,35,98
332.0,27,48.148,1.058,1827.999,0.182,1.547,0.038,10.976,19,0,3,0,6,7,10,35,98
331.998,31,58.065,1.051,2491.001,0.133,0.817,0.035,11.365,13,0,5,0,5,3,10,35,98
328.999,5,40.0,1.733,449.001,0.733,2.599,0.202,49.506,0,0,0,0,4,6,10,35,98
318.999,83,36.145,1.016,4162.002,0.077,2.202,0.013,4.274,65,0,3,0,15,1,10,35,98
295.002,43,55.814,1.034,3493.999,0.084,0.947,0.029,8.515,22,0,4,0,6,3,10,35,98
295.0,68,29.412,1.022,2855.003,0.103,3.374,0.023,6.444,66,0,2,0,15,3,10,35,98
292.998,40,35.0,1.03,2647.0,0.111,2.501,0.032,11.209,32,0,3,0,9,6,10,35,98
286.003,34,58.824,1.038,3552.002,0.081,0.726,0.021,8.999,0,0,0,0,9,3,10,35,98
286.0,2,50.0,1.953,300.0,0.953,1.953,0.216,99.105,1,0,3,0,4,8,10,35,98
286.0,2,50.0,1.953,300.0,0.953,1.953,0.216,99.105,1,0,3,0,4,9,10,35,98
286.0,2,50.0,1.953,300.0,0.953,1.953,0.216,99.325,1,0,3,0,4,10,10,35,98
286.0,2,50.0,1.953,300.0,0.953,1.953,0.216,99.325,1,0,3,0,4,11,10,35,98
276.0,39,46.154,1.035,2935.999,0.094,1.496,0.013,3.46,26,0,3,0,5,2,10,35,98
266.999,8,50.0,1.224,1194.0,0.224,1.224,0.124,35.457,0,0,0,0,4,4,10,35,98
259.0,25,48.0,1.048,2482.999,0.104,1.572,0.019,5.416,18,0,3,0,5,5,10,35,98
258.002,37,37.838,1.025,4120.0,0.063,1.903,0.03,12.468,26,0,4,0,13,7,10,35,98
258.001,32,46.875,1.037,3027.999,0.085,1.591,0.025,7.346,23,0,3,0,6,5,10,35,98
253.999,45,20.0,1.041,2513.998,0.101,7.171,0.024,5.265,62,0,1,0,10,7,10,35,98
247.998,92,18.478,1.021,3028.999,0.082,7.205,0.011,2.336,120,0,1,0,10,1,10,35,98
234.998,27,40.741,1.028,2586.001,0.091,1.588,0.029,13.598,17,0,5,0,14,10,10,35,98
225.999,84,17.857,1.021,3567.0,0.063,7.417,0.022,4.629,109,0,1,0,10,2,10,35,98
222.001,25,52.0,1.039,2823.0,0.079,0.959,0.041,18.382,0,0,0,0,9,5,10,35,98
221.999,40,25.0,1.042,2078.001,0.107,5.522,0.012,2.149,53,0,1,0,6,3,10,35,98
216.0,36,25.0,1.045,1668.998,0.129,5.573,0.016,3.336,48,0,1,0,8,7,10,35,98
211.0,97,27.835,1.012,3591.002,0.059,3.372,0.01,2.823,90,0,2,0,15,1,10,35,98
201.999,47,17.021,1.031,2734.0,0.074,8.502,0.022,5.047,66,0,1,0,11,7,10,35,98
201.001,35,45.714,1.019,3000.0,0.067,1.338,0.032,14.412,21,0,5,0,12,7,10,35,98
199.999,12,41.667,1.101,1739.999,0.115,1.541,0.101,38.523,0,0,0,0,15,13,10,35,98
186.0,2,50.0,1.465,400.0,0.465,1.465,0.121,61.765,1,0,4,0,4,10,10,35,98
186.0,2,50.0,1.465,400.0,0.465,1.465,0.121,61.765,1,0,4,0,4,11,10,35,98
183.997,45,22.222,1.03,2004.001,0.092,6.283,0.01,2.076,60,0,1,0,7,4,10,35,98
181.002,63,34.921,1.012,3181.001,0.057,2.346,0.016,5.546,51,0,3,0,11,3,10,35,98
179.997,42,33.333,1.017,3022.0,0.06,2.615,0.029,10.281,35,0,3,0,11,6,10,35,98
164.999,37,27.027,1.022,1691.0,0.098,3.782,0.03,8.95,37,0,2,0,15,9,10,35,98
159.0,69,39.13,1.009,4342.001,0.037,1.718,0.018,6.983,46,0,4,0,14,2,10,35,98
141.0,38,55.263,1.017,2874.0,0.049,0.872,0.012,3.909,16,0,5,0,5,1,10,35,98
125.998,30,40.0,1.013,2500.0,0.05,1.604,0.037,18.005,19,0,5,0,14,12,10,35,98
117.999,36,22.222,1.023,2039.0,0.058,6.397,0.006,1.274,49,0,1,0,7,5,10,35,98
111.997,25,44.0,1.015,1658.001,0.068,1.384,0.042,18.992,15,0,5,0,15,13,10,35,98
103.998,28,21.429,1.025,1807.001,0.058,7.005,0.005,1.15,40,0,1,0,7,7,10,35,98
99.999,43,44.186,1.012,2513.0,0.04,1.544,-0.004,-1.091,28,0,3,0,5,1,10,35,98
99.998,46,15.217,1.015,2533.0,0.039,9.429,0.02,4.647,65,0,1,0,14,8,10,35,98
87.999,40,35.0,1.009,2820.0,0.031,2.307,0.023,8.066,32,0,3,0,15,7,10,35,98
86.0,4,25.0,1.172,500.0,0.172,5.86,0.054,10.947,5,0,1,0,4,7,10,35,98
82.0,23,47.826,1.017,1882.999,0.044,1.479,0.009,2.572,16,0,3,0,5,6,10,35,98
73.999,31,54.839,1.009,2983.0,0.025,0.831,0.01,5.164,0,0,0,0,14,4,10,35,98
66.003,65,33.846,1.004,3830.001,0.017,2.419,0.009,3.13,53,0,3,0,13,3,10,35,98
61.998,47,19.149,1.009,2713.998,0.023,7.402,0.014,3.137,66,0,1,0,10,6,10,35,98
52.0,68,39.706,1.003,3993.001,0.013,1.672,0.019,7.242,44,0,4,0,11,2,10,35,98
44.999,27,40.741,1.005,2586.001,0.017,1.554,0.019,9.101,17,0,5,0,13,10,10,35,98
43.0,77,33.766,1.002,3645.0,0.012,2.39,0.013,4.661,62,0,3,0,14,2,10,35,98
42.001,74,40.541,1.002,4502.0,0.009,1.604,0.01,3.881,48,0,4,0,15,1,10,35,98
35.0,30,46.667,1.006,2585.0,0.014,1.508,0.001,0.315,21,0,3,0,5,4,10,35,98
30.001,62,46.774,1.002,3670.999,0.008,1.209,0.017,7.009,34,0,5,0,11,2,10,35,98
28.0,12,25.0,1.017,1600.0,0.017,5.427,0.013,2.307,16,0,1,0,4,1,10,35,98
28.0,12,25.0,1.017,1600.0,0.017,5.427,0.013,2.307,16,0,1,0,4,2,10,35,98
17.0,7,28.571,1.015,1100.0,0.015,5.585,0.025,4.592,11,0,1,0,4,4,10,35,98
