337.5	11	81.818	10.926	31	10.887	2.428	0.716	251.574	0	0	0	0	11	12	5	21	82
337.5	11	81.818	10.926	31	10.887	2.428	0.716	251.574	0	0	0	0	11	12	6	21	82
337.5	11	81.818	10.926	31	10.887	2.428	0.716	251.574	0	0	0	0	11	12	7	21	82
337.5	11	81.818	10.926	31	10.887	2.428	0.716	251.574	0	0	0	0	11	12	8	21	82
337.5	11	81.818	10.926	31	10.887	2.428	0.716	251.574	0	0	0	0	11	12	9	21	82

232.5	11	90.909	3.325	100	2.325	0.333	0.408	166.742	1	0	1	0	7	12	5	21	80
232.5	11	90.909	3.325	100	2.325	0.333	0.408	166.742	1	0	1	0	7	12	6	21	80
232.5	11	90.909	3.325	100	2.325	0.333	0.408	166.742	1	0	1	0	7	12	7	21	80
232.5	11	90.909	3.325	100	2.325	0.333	0.408	166.742	1	0	1	0	7	12	5	22	80
232.5	11	90.909	3.325	100	2.325	0.333	0.408	166.742	1	0	1	0	7	12	6	22	80
232.5	11	90.909	3.325	100	2.325	0.333	0.408	166.742	1	0	1	0	7	12	7	22	80
238.5	10	90	4.138	76	3.138	0.46	0.509	189.99	0	0	0	0	7	12	5	21	80
238.5	10	90	4.138	76	3.138	0.46	0.509	189.99	0	0	0	0	7	12	6	21	80
238.5	10	90	4.138	76	3.138	0.46	0.509	189.99	0	0	0	0	7	12	7	21	80
238.5	10	90	4.138	76	3.138	0.46	0.509	189.99	0	0	0	0	7	12	5	22	80
238.5	10	90	4.138	76	3.138	0.46	0.509	189.99	0	0	0	0	7	12	6	22	80
238.5	10	90	4.138	76	3.138	0.46	0.509	189.99	0	0	0	0	7	12	7	22	80
238.5	10	90	4.138	76	3.138	0.46	0.509	189.99	0	0	2	0	7	12	5	21	80
238.5	10	90	4.138	76	3.138	0.46	0.509	189.99	0	0	2	0	7	12	6	21	80
238.5	10	90	4.138	76	3.138	0.46	0.509	189.99	0	0	2	0	7	12	7	21	80
238.5	10	90	4.138	76	3.138	0.46	0.509	189.99	0	0	2	0	7	12	5	22	80
238.5	10	90	4.138	76	3.138	0.46	0.509	189.99	0	0	2	0	7	12	6	22	80
238.5	10	90	4.138	76	3.138	0.46	0.509	189.99	0	0	2	0	7	12	7	22	80
238.5	10	90	4.138	76	3.138	0.46	0.509	189.99	0	0	3	0	7	12	5	21	80
238.5	10	90	4.138	76	3.138	0.46	0.509	189.99	0	0	3	0	7	12	6	21	80
238.5	10	90	4.138	76	3.138	0.46	0.509	189.99	0	0	3	0	7	12	7	21	80
238.5	10	90	4.138	76	3.138	0.46	0.509	189.99	0	0	3	0	7	12	5	22	80
238.5	10	90	4.138	76	3.138	0.46	0.509	189.99	0	0	3	0	7	12	6	22	80
238.5	10	90	4.138	76	3.138	0.46	0.509	189.99	0	0	3	0	7	12	7	22	80
238.5	10	90	4.138	76	3.138	0.46	0.509	189.99	0	0	4	0	7	12	5	21	80
238.5	10	90	4.138	76	3.138	0.46	0.509	189.99	0	0	4	0	7	12	6	21	80
238.5	10	90	4.138	76	3.138	0.46	0.509	189.99	0	0	4	0	7	12	7	21	80
238.5	10	90	4.138	76	3.138	0.46	0.509	189.99	0	0	4	0	7	12	5	22	80
238.5	10	90	4.138	76	3.138	0.46	0.509	189.99	0	0	4	0	7	12	6	22	80
238.5	10	90	4.138	76	3.138	0.46	0.509	189.99	0	0	4	0	7	12	7	22	80
238.5	10	90	4.138	76	3.138	0.46	0.509	189.99	0	0	5	0	7	12	5	21	80
238.5	10	90	4.138	76	3.138	0.46	0.509	189.99	0	0	5	0	7	12	6	21	80
238.5	10	90	4.138	76	3.138	0.46	0.509	189.99	0	0	5	0	7	12	7	21	80
238.5	10	90	4.138	76	3.138	0.46	0.509	189.99	0	0	5	0	7	12	5	22	80
238.5	10	90	4.138	76	3.138	0.46	0.509	189.99	0	0	5	0	7	12	6	22	80
238.5	10	90	4.138	76	3.138	0.46	0.509	189.99	0	0	5	0	7	12	7	22	80


579.5	19	73.684	4.502	87.5	6.623	1.608	0.645	224.898	0	0	0	0	10	9	10	20	82
579.5	19	73.684	4.502	87.5	6.623	1.608	0.645	224.898	0	0	0	0	10	9	11	20	82
579.5	19	73.684	4.502	87.5	6.623	1.608	0.645	224.898	0	0	0	0	10	9	12	20	82
579.5	19	73.684	4.502	87.5	6.623	1.608	0.645	224.898	0	0	2	0	10	9	10	20	82
579.5	19	73.684	4.502	87.5	6.623	1.608	0.645	224.898	0	0	2	0	10	9	11	20	82
579.5	19	73.684	4.502	87.5	6.623	1.608	0.645	224.898	0	0	2	0	10	9	12	20	82
579.5	19	73.684	4.502	87.5	6.623	1.608	0.645	224.898	0	0	3	0	10	9	10	20	82
579.5	19	73.684	4.502	87.5	6.623	1.608	0.645	224.898	0	0	3	0	10	9	11	20	82
579.5	19	73.684	4.502	87.5	6.623	1.608	0.645	224.898	0	0	3	0	10	9	12	20	82
579.5	19	73.684	4.502	87.5	6.623	1.608	0.645	224.898	0	0	4	0	10	9	10	20	82
579.5	19	73.684	4.502	87.5	6.623	1.608	0.645	224.898	0	0	4	0	10	9	11	20	82
579.5	19	73.684	4.502	87.5	6.623	1.608	0.645	224.898	0	0	4	0	10	9	12	20	82
579.5	19	73.684	4.502	87.5	6.623	1.608	0.645	224.898	0	0	5	0	10	9	10	20	82
579.5	19	73.684	4.502	87.5	6.623	1.608	0.645	224.898	0	0	5	0	10	9	11	20	82
579.5	19	73.684	4.502	87.5	6.623	1.608	0.645	224.898	0	0	5	0	10	9	12	20	82
