2901.833	14	78.571	3.946	738	3.932	1.076	0.491	158.054	0	0	0	0	9	12	5	22	82
2901.833	14	78.571	3.946	738	3.932	1.076	0.491	158.054	0	0	0	0	9	12	6	22	82
2901.833	14	78.571	3.946	738	3.932	1.076	0.491	158.054	0	0	0	0	9	12	7	22	82
2901.833	14	78.571	3.946	738	3.932	1.076	0.491	158.054	0	0	0	0	9	12	8	22	82
2888.448	15	73.333	3.893	738	3.914	1.416	0.469	146.867	0	0	0	0	9	12	10	22	81
2888.448	15	73.333	3.893	738	3.914	1.416	0.469	146.867	0	0	0	0	9	12	11	22	81
