total profit	total trades	win rate	profit factor	maximum drawdown	recovery factor	riskreward ratio	sharpe ratio	average return	stop loss hit	take profit hit	stop loss set	take profit set	ema_period	rsi_period	atr_period	rsi_low	rsi_high
1766	17	76.471	2.104	484	3.649	0.647	0.218	115.082	4	0	4	0	7	12	9	19	79
1766	17	76.471	2.104	484	3.649	0.647	0.218	115.082	4	0	4	0	7	12	10	19	79
1766	17	76.471	2.104	484	3.649	0.647	0.218	115.082	4	0	4	0	7	12	9	20	79
1766	17	76.471	2.104	484	3.649	0.647	0.218	115.082	4	0	4	0	7	12	10	20	79
1762	17	76.471	2.101	484	3.64	0.647	0.217	114.492	4	0	4	0	7	12	10	19	80
1762	17	76.471	2.101	484	3.64	0.647	0.217	114.492	4	0	4	0	7	12	10	20	80
1762	17	76.471	2.101	484	3.64	0.647	0.217	114.492	4	0	4	0	7	12	10	19	81
1762	17	76.471	2.101	484	3.64	0.647	0.217	114.492	4	0	4	0	7	12	10	20	81
2066	16	75	2.548	484	4.269	0.849	0.286	150.49	3	0	4	0	7	12	9	19	82
2066	16	75	2.548	484	4.269	0.849	0.286	150.49	3	0	4	0	7	12	10	19	82
2066	16	75	2.548	484	4.269	0.849	0.286	150.49	3	0	4	0	7	12	9	20	82
2066	16	75	2.548	484	4.269	0.849	0.286	150.49	3	0	4	0	7	12	10	20	82

2166	14	71.429	3.588	395	5.484	1.435	0.356	181.82	0	0	0	0	7	12	9	19	82
2166	14	71.429	3.588	395	5.484	1.435	0.356	181.82	0	0	0	0	7	12	10	19	82
2166	14	71.429	3.588	395	5.484	1.435	0.356	181.82	0	0	0	0	7	12	9	20	82
2166	14	71.429	3.588	395	5.484	1.435	0.356	181.82	0	0	0	0	7	12	10	20	82
